C:\Projects\mme2\mme2\NewsWeb\wwwroot\app\app.component.js
C:\Projects\mme2\mme2\NewsWeb\wwwroot\app\app.component.js.map
C:\Projects\mme2\mme2\NewsWeb\wwwroot\app\app.component.spec.js
C:\Projects\mme2\mme2\NewsWeb\wwwroot\app\app.component.spec.js.map
C:\Projects\mme2\mme2\NewsWeb\wwwroot\app\models\News.js
C:\Projects\mme2\mme2\NewsWeb\wwwroot\app\models\News.js.map
C:\Projects\mme2\mme2\NewsWeb\wwwroot\app\services\HttpService\HttpService.js
C:\Projects\mme2\mme2\NewsWeb\wwwroot\app\services\HttpService\HttpService.js.map
C:\Projects\mme2\mme2\NewsWeb\wwwroot\app\services\NewsService.js
C:\Projects\mme2\mme2\NewsWeb\wwwroot\app\services\NewsService.js.map
C:\Projects\mme2\mme2\NewsWeb\wwwroot\app\components\news-list\news-list.component.js
C:\Projects\mme2\mme2\NewsWeb\wwwroot\app\components\news-list\news-list.component.js.map
C:\Projects\mme2\mme2\NewsWeb\wwwroot\app\components\left-side\left-side.component.js
C:\Projects\mme2\mme2\NewsWeb\wwwroot\app\components\left-side\left-side.component.js.map
C:\Projects\mme2\mme2\NewsWeb\wwwroot\app\app.module.js
C:\Projects\mme2\mme2\NewsWeb\wwwroot\app\app.module.js.map
C:\Projects\mme2\mme2\NewsWeb\wwwroot\app\main.js
C:\Projects\mme2\mme2\NewsWeb\wwwroot\app\main.js.map
C:\Projects\mme2\mme2\NewsWeb\wwwroot\app\components\news-list\news-list.component.spec.js
C:\Projects\mme2\mme2\NewsWeb\wwwroot\app\components\news-list\news-list.component.spec.js.map
C:\Projects\mme2\mme2\NewsWeb\wwwroot\app\components\left-side\left-side.component.spec.js
C:\Projects\mme2\mme2\NewsWeb\wwwroot\app\components\left-side\left-side.component.spec.js.map
C:\Projects\mme2\mme2\NewsWeb\wwwroot\app\app.component.js
C:\Projects\mme2\mme2\NewsWeb\wwwroot\app\app.component.js.map
C:\Projects\mme2\mme2\NewsWeb\wwwroot\app\app.component.spec.js
C:\Projects\mme2\mme2\NewsWeb\wwwroot\app\app.component.spec.js.map
C:\Projects\mme2\mme2\NewsWeb\wwwroot\app\models\News.js
C:\Projects\mme2\mme2\NewsWeb\wwwroot\app\models\News.js.map
C:\Projects\mme2\mme2\NewsWeb\wwwroot\app\services\HttpService\HttpService.js
C:\Projects\mme2\mme2\NewsWeb\wwwroot\app\services\HttpService\HttpService.js.map
C:\Projects\mme2\mme2\NewsWeb\wwwroot\app\services\NewsService.js
C:\Projects\mme2\mme2\NewsWeb\wwwroot\app\services\NewsService.js.map
C:\Projects\mme2\mme2\NewsWeb\wwwroot\app\components\news-list\news-list.component.js
C:\Projects\mme2\mme2\NewsWeb\wwwroot\app\components\news-list\news-list.component.js.map
C:\Projects\mme2\mme2\NewsWeb\wwwroot\app\components\left-side\left-side.component.js
C:\Projects\mme2\mme2\NewsWeb\wwwroot\app\components\left-side\left-side.component.js.map
C:\Projects\mme2\mme2\NewsWeb\wwwroot\app\app.module.js
C:\Projects\mme2\mme2\NewsWeb\wwwroot\app\app.module.js.map
C:\Projects\mme2\mme2\NewsWeb\wwwroot\app\main.js
C:\Projects\mme2\mme2\NewsWeb\wwwroot\app\main.js.map
C:\Projects\mme2\mme2\NewsWeb\wwwroot\app\components\news-list\news-list.component.spec.js
C:\Projects\mme2\mme2\NewsWeb\wwwroot\app\components\news-list\news-list.component.spec.js.map
C:\Projects\mme2\mme2\NewsWeb\wwwroot\app\components\left-side\left-side.component.spec.js
C:\Projects\mme2\mme2\NewsWeb\wwwroot\app\components\left-side\left-side.component.spec.js.map
C:\Projects\mme2\mme2\NewsWeb\wwwroot\app\app.component.js
C:\Projects\mme2\mme2\NewsWeb\wwwroot\app\app.component.js.map
C:\Projects\mme2\mme2\NewsWeb\wwwroot\app\app.component.spec.js
C:\Projects\mme2\mme2\NewsWeb\wwwroot\app\app.component.spec.js.map
C:\Projects\mme2\mme2\NewsWeb\wwwroot\app\models\News.js
C:\Projects\mme2\mme2\NewsWeb\wwwroot\app\models\News.js.map
C:\Projects\mme2\mme2\NewsWeb\wwwroot\app\services\HttpService\HttpService.js
C:\Projects\mme2\mme2\NewsWeb\wwwroot\app\services\HttpService\HttpService.js.map
C:\Projects\mme2\mme2\NewsWeb\wwwroot\app\services\NewsService.js
C:\Projects\mme2\mme2\NewsWeb\wwwroot\app\services\NewsService.js.map
C:\Projects\mme2\mme2\NewsWeb\wwwroot\app\components\news-list\news-list.component.js
C:\Projects\mme2\mme2\NewsWeb\wwwroot\app\components\news-list\news-list.component.js.map
C:\Projects\mme2\mme2\NewsWeb\wwwroot\app\components\left-side\left-side.component.js
C:\Projects\mme2\mme2\NewsWeb\wwwroot\app\components\left-side\left-side.component.js.map
C:\Projects\mme2\mme2\NewsWeb\wwwroot\app\app.module.js
C:\Projects\mme2\mme2\NewsWeb\wwwroot\app\app.module.js.map
C:\Projects\mme2\mme2\NewsWeb\wwwroot\app\main.js
C:\Projects\mme2\mme2\NewsWeb\wwwroot\app\main.js.map
C:\Projects\mme2\mme2\NewsWeb\wwwroot\app\components\news-list\news-list.component.spec.js
C:\Projects\mme2\mme2\NewsWeb\wwwroot\app\components\news-list\news-list.component.spec.js.map
C:\Projects\mme2\mme2\NewsWeb\wwwroot\app\components\left-side\left-side.component.spec.js
C:\Projects\mme2\mme2\NewsWeb\wwwroot\app\components\left-side\left-side.component.spec.js.map
C:\Projects\mme2\mme2\NewsWeb\wwwroot\app\app.component.js
C:\Projects\mme2\mme2\NewsWeb\wwwroot\app\app.component.js.map
C:\Projects\mme2\mme2\NewsWeb\wwwroot\app\app.component.spec.js
C:\Projects\mme2\mme2\NewsWeb\wwwroot\app\app.component.spec.js.map
C:\Projects\mme2\mme2\NewsWeb\wwwroot\app\models\News.js
C:\Projects\mme2\mme2\NewsWeb\wwwroot\app\models\News.js.map
C:\Projects\mme2\mme2\NewsWeb\wwwroot\app\services\HttpService\HttpService.js
C:\Projects\mme2\mme2\NewsWeb\wwwroot\app\services\HttpService\HttpService.js.map
C:\Projects\mme2\mme2\NewsWeb\wwwroot\app\services\NewsService.js
C:\Projects\mme2\mme2\NewsWeb\wwwroot\app\services\NewsService.js.map
C:\Projects\mme2\mme2\NewsWeb\wwwroot\app\components\news-list\news-list.component.js
C:\Projects\mme2\mme2\NewsWeb\wwwroot\app\components\news-list\news-list.component.js.map
C:\Projects\mme2\mme2\NewsWeb\wwwroot\app\components\left-side\left-side.component.js
C:\Projects\mme2\mme2\NewsWeb\wwwroot\app\components\left-side\left-side.component.js.map
C:\Projects\mme2\mme2\NewsWeb\wwwroot\app\app.module.js
C:\Projects\mme2\mme2\NewsWeb\wwwroot\app\app.module.js.map
C:\Projects\mme2\mme2\NewsWeb\wwwroot\app\main.js
C:\Projects\mme2\mme2\NewsWeb\wwwroot\app\main.js.map
C:\Projects\mme2\mme2\NewsWeb\wwwroot\app\components\news-list\news-list.component.spec.js
C:\Projects\mme2\mme2\NewsWeb\wwwroot\app\components\news-list\news-list.component.spec.js.map
C:\Projects\mme2\mme2\NewsWeb\wwwroot\app\components\left-side\left-side.component.spec.js
C:\Projects\mme2\mme2\NewsWeb\wwwroot\app\components\left-side\left-side.component.spec.js.map
C:\Projects\mme2\mme2\NewsWeb\obj\Release\netcoreapp2.0\PubTmp\Out\wwwroot\app\app.component.js
C:\Projects\mme2\mme2\NewsWeb\obj\Release\netcoreapp2.0\PubTmp\Out\wwwroot\app\app.component.js.map
C:\Projects\mme2\mme2\NewsWeb\obj\Release\netcoreapp2.0\PubTmp\Out\wwwroot\app\app.component.spec.js
C:\Projects\mme2\mme2\NewsWeb\obj\Release\netcoreapp2.0\PubTmp\Out\wwwroot\app\app.component.spec.js.map
C:\Projects\mme2\mme2\NewsWeb\obj\Release\netcoreapp2.0\PubTmp\Out\wwwroot\app\components\news-list\news-list.component.js
C:\Projects\mme2\mme2\NewsWeb\obj\Release\netcoreapp2.0\PubTmp\Out\wwwroot\app\components\news-list\news-list.component.js.map
C:\Projects\mme2\mme2\NewsWeb\obj\Release\netcoreapp2.0\PubTmp\Out\wwwroot\app\components\left-side\left-side.component.js
C:\Projects\mme2\mme2\NewsWeb\obj\Release\netcoreapp2.0\PubTmp\Out\wwwroot\app\components\left-side\left-side.component.js.map
C:\Projects\mme2\mme2\NewsWeb\obj\Release\netcoreapp2.0\PubTmp\Out\wwwroot\app\app.module.js
C:\Projects\mme2\mme2\NewsWeb\obj\Release\netcoreapp2.0\PubTmp\Out\wwwroot\app\app.module.js.map
C:\Projects\mme2\mme2\NewsWeb\obj\Release\netcoreapp2.0\PubTmp\Out\wwwroot\app\main.js
C:\Projects\mme2\mme2\NewsWeb\obj\Release\netcoreapp2.0\PubTmp\Out\wwwroot\app\main.js.map
C:\Projects\mme2\mme2\NewsWeb\obj\Release\netcoreapp2.0\PubTmp\Out\wwwroot\app\components\news-list\news-list.component.spec.js
C:\Projects\mme2\mme2\NewsWeb\obj\Release\netcoreapp2.0\PubTmp\Out\wwwroot\app\components\news-list\news-list.component.spec.js.map
C:\Projects\mme2\mme2\NewsWeb\obj\Release\netcoreapp2.0\PubTmp\Out\wwwroot\app\components\left-side\left-side.component.spec.js
C:\Projects\mme2\mme2\NewsWeb\obj\Release\netcoreapp2.0\PubTmp\Out\wwwroot\app\components\left-side\left-side.component.spec.js.map
C:\Projects\mme2\mme2\NewsWeb\wwwroot\app\app.component.js
C:\Projects\mme2\mme2\NewsWeb\wwwroot\app\app.component.js.map
C:\Projects\mme2\mme2\NewsWeb\wwwroot\app\app.component.spec.js
C:\Projects\mme2\mme2\NewsWeb\wwwroot\app\app.component.spec.js.map
C:\Projects\mme2\mme2\NewsWeb\wwwroot\app\models\News.js
C:\Projects\mme2\mme2\NewsWeb\wwwroot\app\models\News.js.map
C:\Projects\mme2\mme2\NewsWeb\wwwroot\app\services\HttpService\HttpService.js
C:\Projects\mme2\mme2\NewsWeb\wwwroot\app\services\HttpService\HttpService.js.map
C:\Projects\mme2\mme2\NewsWeb\wwwroot\app\services\NewsService.js
C:\Projects\mme2\mme2\NewsWeb\wwwroot\app\services\NewsService.js.map
C:\Projects\mme2\mme2\NewsWeb\wwwroot\app\components\news-list\news-list.component.js
C:\Projects\mme2\mme2\NewsWeb\wwwroot\app\components\news-list\news-list.component.js.map
C:\Projects\mme2\mme2\NewsWeb\wwwroot\app\components\left-side\left-side.component.js
C:\Projects\mme2\mme2\NewsWeb\wwwroot\app\components\left-side\left-side.component.js.map
C:\Projects\mme2\mme2\NewsWeb\wwwroot\app\app.module.js
C:\Projects\mme2\mme2\NewsWeb\wwwroot\app\app.module.js.map
C:\Projects\mme2\mme2\NewsWeb\wwwroot\app\main.js
C:\Projects\mme2\mme2\NewsWeb\wwwroot\app\main.js.map
C:\Projects\mme2\mme2\NewsWeb\wwwroot\app\components\news-list\news-list.component.spec.js
C:\Projects\mme2\mme2\NewsWeb\wwwroot\app\components\news-list\news-list.component.spec.js.map
C:\Projects\mme2\mme2\NewsWeb\wwwroot\app\components\left-side\left-side.component.spec.js
C:\Projects\mme2\mme2\NewsWeb\wwwroot\app\components\left-side\left-side.component.spec.js.map
C:\Projects\mme2\mme2\NewsWeb\obj\Release\netcoreapp2.0\PubTmp\Out\wwwroot\app\app.component.js
C:\Projects\mme2\mme2\NewsWeb\obj\Release\netcoreapp2.0\PubTmp\Out\wwwroot\app\app.component.js.map
C:\Projects\mme2\mme2\NewsWeb\obj\Release\netcoreapp2.0\PubTmp\Out\wwwroot\app\app.component.spec.js
C:\Projects\mme2\mme2\NewsWeb\obj\Release\netcoreapp2.0\PubTmp\Out\wwwroot\app\app.component.spec.js.map
C:\Projects\mme2\mme2\NewsWeb\obj\Release\netcoreapp2.0\PubTmp\Out\wwwroot\app\components\news-list\news-list.component.js
C:\Projects\mme2\mme2\NewsWeb\obj\Release\netcoreapp2.0\PubTmp\Out\wwwroot\app\components\news-list\news-list.component.js.map
C:\Projects\mme2\mme2\NewsWeb\obj\Release\netcoreapp2.0\PubTmp\Out\wwwroot\app\components\left-side\left-side.component.js
C:\Projects\mme2\mme2\NewsWeb\obj\Release\netcoreapp2.0\PubTmp\Out\wwwroot\app\components\left-side\left-side.component.js.map
C:\Projects\mme2\mme2\NewsWeb\obj\Release\netcoreapp2.0\PubTmp\Out\wwwroot\app\app.module.js
C:\Projects\mme2\mme2\NewsWeb\obj\Release\netcoreapp2.0\PubTmp\Out\wwwroot\app\app.module.js.map
C:\Projects\mme2\mme2\NewsWeb\obj\Release\netcoreapp2.0\PubTmp\Out\wwwroot\app\main.js
C:\Projects\mme2\mme2\NewsWeb\obj\Release\netcoreapp2.0\PubTmp\Out\wwwroot\app\main.js.map
C:\Projects\mme2\mme2\NewsWeb\obj\Release\netcoreapp2.0\PubTmp\Out\wwwroot\app\components\news-list\news-list.component.spec.js
C:\Projects\mme2\mme2\NewsWeb\obj\Release\netcoreapp2.0\PubTmp\Out\wwwroot\app\components\news-list\news-list.component.spec.js.map
C:\Projects\mme2\mme2\NewsWeb\obj\Release\netcoreapp2.0\PubTmp\Out\wwwroot\app\components\left-side\left-side.component.spec.js
C:\Projects\mme2\mme2\NewsWeb\obj\Release\netcoreapp2.0\PubTmp\Out\wwwroot\app\components\left-side\left-side.component.spec.js.map
C:\Projects\mme2\mme2\NewsWeb\wwwroot\app\app.component.js
C:\Projects\mme2\mme2\NewsWeb\wwwroot\app\app.component.js.map
C:\Projects\mme2\mme2\NewsWeb\wwwroot\app\app.component.spec.js
C:\Projects\mme2\mme2\NewsWeb\wwwroot\app\app.component.spec.js.map
C:\Projects\mme2\mme2\NewsWeb\wwwroot\app\models\News.js
C:\Projects\mme2\mme2\NewsWeb\wwwroot\app\models\News.js.map
C:\Projects\mme2\mme2\NewsWeb\wwwroot\app\services\HttpService\HttpService.js
C:\Projects\mme2\mme2\NewsWeb\wwwroot\app\services\HttpService\HttpService.js.map
C:\Projects\mme2\mme2\NewsWeb\wwwroot\app\services\NewsService.js
C:\Projects\mme2\mme2\NewsWeb\wwwroot\app\services\NewsService.js.map
C:\Projects\mme2\mme2\NewsWeb\wwwroot\app\components\news-list\news-list.component.js
C:\Projects\mme2\mme2\NewsWeb\wwwroot\app\components\news-list\news-list.component.js.map
C:\Projects\mme2\mme2\NewsWeb\wwwroot\app\components\left-side\left-side.component.js
C:\Projects\mme2\mme2\NewsWeb\wwwroot\app\components\left-side\left-side.component.js.map
C:\Projects\mme2\mme2\NewsWeb\wwwroot\app\app.module.js
C:\Projects\mme2\mme2\NewsWeb\wwwroot\app\app.module.js.map
C:\Projects\mme2\mme2\NewsWeb\wwwroot\app\main.js
C:\Projects\mme2\mme2\NewsWeb\wwwroot\app\main.js.map
C:\Projects\mme2\mme2\NewsWeb\wwwroot\app\components\news-list\news-list.component.spec.js
C:\Projects\mme2\mme2\NewsWeb\wwwroot\app\components\news-list\news-list.component.spec.js.map
C:\Projects\mme2\mme2\NewsWeb\wwwroot\app\components\left-side\left-side.component.spec.js
C:\Projects\mme2\mme2\NewsWeb\wwwroot\app\components\left-side\left-side.component.spec.js.map
C:\Projects\mme2\mme2\NewsWeb\obj\Release\netcoreapp2.0\PubTmp\Out\wwwroot\app\app.component.js
C:\Projects\mme2\mme2\NewsWeb\obj\Release\netcoreapp2.0\PubTmp\Out\wwwroot\app\app.component.js.map
C:\Projects\mme2\mme2\NewsWeb\obj\Release\netcoreapp2.0\PubTmp\Out\wwwroot\app\app.component.spec.js
C:\Projects\mme2\mme2\NewsWeb\obj\Release\netcoreapp2.0\PubTmp\Out\wwwroot\app\app.component.spec.js.map
C:\Projects\mme2\mme2\NewsWeb\obj\Release\netcoreapp2.0\PubTmp\Out\wwwroot\app\components\news-list\news-list.component.js
C:\Projects\mme2\mme2\NewsWeb\obj\Release\netcoreapp2.0\PubTmp\Out\wwwroot\app\components\news-list\news-list.component.js.map
C:\Projects\mme2\mme2\NewsWeb\obj\Release\netcoreapp2.0\PubTmp\Out\wwwroot\app\components\left-side\left-side.component.js
C:\Projects\mme2\mme2\NewsWeb\obj\Release\netcoreapp2.0\PubTmp\Out\wwwroot\app\components\left-side\left-side.component.js.map
C:\Projects\mme2\mme2\NewsWeb\obj\Release\netcoreapp2.0\PubTmp\Out\wwwroot\app\app.module.js
C:\Projects\mme2\mme2\NewsWeb\obj\Release\netcoreapp2.0\PubTmp\Out\wwwroot\app\app.module.js.map
C:\Projects\mme2\mme2\NewsWeb\obj\Release\netcoreapp2.0\PubTmp\Out\wwwroot\app\main.js
C:\Projects\mme2\mme2\NewsWeb\obj\Release\netcoreapp2.0\PubTmp\Out\wwwroot\app\main.js.map
C:\Projects\mme2\mme2\NewsWeb\obj\Release\netcoreapp2.0\PubTmp\Out\wwwroot\app\components\news-list\news-list.component.spec.js
C:\Projects\mme2\mme2\NewsWeb\obj\Release\netcoreapp2.0\PubTmp\Out\wwwroot\app\components\news-list\news-list.component.spec.js.map
C:\Projects\mme2\mme2\NewsWeb\obj\Release\netcoreapp2.0\PubTmp\Out\wwwroot\app\components\left-side\left-side.component.spec.js
C:\Projects\mme2\mme2\NewsWeb\obj\Release\netcoreapp2.0\PubTmp\Out\wwwroot\app\components\left-side\left-side.component.spec.js.map
C:\Projects\mme2\mme2\NewsWeb\wwwroot\app\app.component.js
C:\Projects\mme2\mme2\NewsWeb\wwwroot\app\app.component.js.map
C:\Projects\mme2\mme2\NewsWeb\wwwroot\app\app.component.spec.js
C:\Projects\mme2\mme2\NewsWeb\wwwroot\app\app.component.spec.js.map
C:\Projects\mme2\mme2\NewsWeb\wwwroot\app\models\News.js
C:\Projects\mme2\mme2\NewsWeb\wwwroot\app\models\News.js.map
C:\Projects\mme2\mme2\NewsWeb\wwwroot\app\services\HttpService\HttpService.js
C:\Projects\mme2\mme2\NewsWeb\wwwroot\app\services\HttpService\HttpService.js.map
C:\Projects\mme2\mme2\NewsWeb\wwwroot\app\services\NewsService.js
C:\Projects\mme2\mme2\NewsWeb\wwwroot\app\services\NewsService.js.map
C:\Projects\mme2\mme2\NewsWeb\wwwroot\app\components\news-list\news-list.component.js
C:\Projects\mme2\mme2\NewsWeb\wwwroot\app\components\news-list\news-list.component.js.map
C:\Projects\mme2\mme2\NewsWeb\wwwroot\app\components\left-side\left-side.component.js
C:\Projects\mme2\mme2\NewsWeb\wwwroot\app\components\left-side\left-side.component.js.map
C:\Projects\mme2\mme2\NewsWeb\wwwroot\app\app.module.js
C:\Projects\mme2\mme2\NewsWeb\wwwroot\app\app.module.js.map
C:\Projects\mme2\mme2\NewsWeb\wwwroot\app\main.js
C:\Projects\mme2\mme2\NewsWeb\wwwroot\app\main.js.map
C:\Projects\mme2\mme2\NewsWeb\wwwroot\app\components\news-list\news-list.component.spec.js
C:\Projects\mme2\mme2\NewsWeb\wwwroot\app\components\news-list\news-list.component.spec.js.map
C:\Projects\mme2\mme2\NewsWeb\wwwroot\app\components\left-side\left-side.component.spec.js
C:\Projects\mme2\mme2\NewsWeb\wwwroot\app\components\left-side\left-side.component.spec.js.map
C:\Projects\mme2\mme2\NewsWeb\obj\Release\netcoreapp2.0\PubTmp\Out\wwwroot\app\app.component.js
C:\Projects\mme2\mme2\NewsWeb\obj\Release\netcoreapp2.0\PubTmp\Out\wwwroot\app\app.component.js.map
C:\Projects\mme2\mme2\NewsWeb\obj\Release\netcoreapp2.0\PubTmp\Out\wwwroot\app\app.component.spec.js
C:\Projects\mme2\mme2\NewsWeb\obj\Release\netcoreapp2.0\PubTmp\Out\wwwroot\app\app.component.spec.js.map
C:\Projects\mme2\mme2\NewsWeb\obj\Release\netcoreapp2.0\PubTmp\Out\wwwroot\app\components\news-list\news-list.component.js
C:\Projects\mme2\mme2\NewsWeb\obj\Release\netcoreapp2.0\PubTmp\Out\wwwroot\app\components\news-list\news-list.component.js.map
C:\Projects\mme2\mme2\NewsWeb\obj\Release\netcoreapp2.0\PubTmp\Out\wwwroot\app\components\left-side\left-side.component.js
C:\Projects\mme2\mme2\NewsWeb\obj\Release\netcoreapp2.0\PubTmp\Out\wwwroot\app\components\left-side\left-side.component.js.map
C:\Projects\mme2\mme2\NewsWeb\obj\Release\netcoreapp2.0\PubTmp\Out\wwwroot\app\app.module.js
C:\Projects\mme2\mme2\NewsWeb\obj\Release\netcoreapp2.0\PubTmp\Out\wwwroot\app\app.module.js.map
C:\Projects\mme2\mme2\NewsWeb\obj\Release\netcoreapp2.0\PubTmp\Out\wwwroot\app\main.js
C:\Projects\mme2\mme2\NewsWeb\obj\Release\netcoreapp2.0\PubTmp\Out\wwwroot\app\main.js.map
C:\Projects\mme2\mme2\NewsWeb\obj\Release\netcoreapp2.0\PubTmp\Out\wwwroot\app\components\news-list\news-list.component.spec.js
C:\Projects\mme2\mme2\NewsWeb\obj\Release\netcoreapp2.0\PubTmp\Out\wwwroot\app\components\news-list\news-list.component.spec.js.map
C:\Projects\mme2\mme2\NewsWeb\obj\Release\netcoreapp2.0\PubTmp\Out\wwwroot\app\components\left-side\left-side.component.spec.js
C:\Projects\mme2\mme2\NewsWeb\obj\Release\netcoreapp2.0\PubTmp\Out\wwwroot\app\components\left-side\left-side.component.spec.js.map
C:\Projects\mme2\mme2\NewsWeb\wwwroot\app\app.component.js
C:\Projects\mme2\mme2\NewsWeb\wwwroot\app\app.component.js.map
C:\Projects\mme2\mme2\NewsWeb\wwwroot\app\app.component.spec.js
C:\Projects\mme2\mme2\NewsWeb\wwwroot\app\app.component.spec.js.map
C:\Projects\mme2\mme2\NewsWeb\wwwroot\app\models\News.js
C:\Projects\mme2\mme2\NewsWeb\wwwroot\app\models\News.js.map
C:\Projects\mme2\mme2\NewsWeb\wwwroot\app\services\HttpService\HttpService.js
C:\Projects\mme2\mme2\NewsWeb\wwwroot\app\services\HttpService\HttpService.js.map
C:\Projects\mme2\mme2\NewsWeb\wwwroot\app\services\NewsService.js
C:\Projects\mme2\mme2\NewsWeb\wwwroot\app\services\NewsService.js.map
C:\Projects\mme2\mme2\NewsWeb\wwwroot\app\components\news-list\news-list.component.js
C:\Projects\mme2\mme2\NewsWeb\wwwroot\app\components\news-list\news-list.component.js.map
C:\Projects\mme2\mme2\NewsWeb\wwwroot\app\components\left-side\left-side.component.js
C:\Projects\mme2\mme2\NewsWeb\wwwroot\app\components\left-side\left-side.component.js.map
C:\Projects\mme2\mme2\NewsWeb\wwwroot\app\app.module.js
C:\Projects\mme2\mme2\NewsWeb\wwwroot\app\app.module.js.map
C:\Projects\mme2\mme2\NewsWeb\wwwroot\app\main.js
C:\Projects\mme2\mme2\NewsWeb\wwwroot\app\main.js.map
C:\Projects\mme2\mme2\NewsWeb\wwwroot\app\components\news-list\news-list.component.spec.js
C:\Projects\mme2\mme2\NewsWeb\wwwroot\app\components\news-list\news-list.component.spec.js.map
C:\Projects\mme2\mme2\NewsWeb\wwwroot\app\components\left-side\left-side.component.spec.js
C:\Projects\mme2\mme2\NewsWeb\wwwroot\app\components\left-side\left-side.component.spec.js.map
C:\Projects\mme2\mme2\NewsWeb\obj\Release\netcoreapp2.0\PubTmp\Out\wwwroot\app\app.component.js
C:\Projects\mme2\mme2\NewsWeb\obj\Release\netcoreapp2.0\PubTmp\Out\wwwroot\app\app.component.js.map
C:\Projects\mme2\mme2\NewsWeb\obj\Release\netcoreapp2.0\PubTmp\Out\wwwroot\app\app.component.spec.js
C:\Projects\mme2\mme2\NewsWeb\obj\Release\netcoreapp2.0\PubTmp\Out\wwwroot\app\app.component.spec.js.map
C:\Projects\mme2\mme2\NewsWeb\obj\Release\netcoreapp2.0\PubTmp\Out\wwwroot\app\components\news-list\news-list.component.js
C:\Projects\mme2\mme2\NewsWeb\obj\Release\netcoreapp2.0\PubTmp\Out\wwwroot\app\components\news-list\news-list.component.js.map
C:\Projects\mme2\mme2\NewsWeb\obj\Release\netcoreapp2.0\PubTmp\Out\wwwroot\app\components\left-side\left-side.component.js
C:\Projects\mme2\mme2\NewsWeb\obj\Release\netcoreapp2.0\PubTmp\Out\wwwroot\app\components\left-side\left-side.component.js.map
C:\Projects\mme2\mme2\NewsWeb\obj\Release\netcoreapp2.0\PubTmp\Out\wwwroot\app\app.module.js
C:\Projects\mme2\mme2\NewsWeb\obj\Release\netcoreapp2.0\PubTmp\Out\wwwroot\app\app.module.js.map
C:\Projects\mme2\mme2\NewsWeb\obj\Release\netcoreapp2.0\PubTmp\Out\wwwroot\app\main.js
C:\Projects\mme2\mme2\NewsWeb\obj\Release\netcoreapp2.0\PubTmp\Out\wwwroot\app\main.js.map
C:\Projects\mme2\mme2\NewsWeb\obj\Release\netcoreapp2.0\PubTmp\Out\wwwroot\app\components\news-list\news-list.component.spec.js
C:\Projects\mme2\mme2\NewsWeb\obj\Release\netcoreapp2.0\PubTmp\Out\wwwroot\app\components\news-list\news-list.component.spec.js.map
C:\Projects\mme2\mme2\NewsWeb\obj\Release\netcoreapp2.0\PubTmp\Out\wwwroot\app\components\left-side\left-side.component.spec.js
C:\Projects\mme2\mme2\NewsWeb\obj\Release\netcoreapp2.0\PubTmp\Out\wwwroot\app\components\left-side\left-side.component.spec.js.map
C:\Projects\mme2\mme2\NewsWeb\wwwroot\app\app.component.js
C:\Projects\mme2\mme2\NewsWeb\wwwroot\app\app.component.js.map
C:\Projects\mme2\mme2\NewsWeb\wwwroot\app\app.component.spec.js
C:\Projects\mme2\mme2\NewsWeb\wwwroot\app\app.component.spec.js.map
C:\Projects\mme2\mme2\NewsWeb\wwwroot\app\models\News.js
C:\Projects\mme2\mme2\NewsWeb\wwwroot\app\models\News.js.map
C:\Projects\mme2\mme2\NewsWeb\wwwroot\app\services\HttpService\HttpService.js
C:\Projects\mme2\mme2\NewsWeb\wwwroot\app\services\HttpService\HttpService.js.map
C:\Projects\mme2\mme2\NewsWeb\wwwroot\app\services\NewsService.js
C:\Projects\mme2\mme2\NewsWeb\wwwroot\app\services\NewsService.js.map
C:\Projects\mme2\mme2\NewsWeb\wwwroot\app\components\news-list\news-list.component.js
C:\Projects\mme2\mme2\NewsWeb\wwwroot\app\components\news-list\news-list.component.js.map
C:\Projects\mme2\mme2\NewsWeb\wwwroot\app\components\left-side\left-side.component.js
C:\Projects\mme2\mme2\NewsWeb\wwwroot\app\components\left-side\left-side.component.js.map
C:\Projects\mme2\mme2\NewsWeb\wwwroot\app\app.module.js
C:\Projects\mme2\mme2\NewsWeb\wwwroot\app\app.module.js.map
C:\Projects\mme2\mme2\NewsWeb\wwwroot\app\main.js
C:\Projects\mme2\mme2\NewsWeb\wwwroot\app\main.js.map
C:\Projects\mme2\mme2\NewsWeb\wwwroot\app\components\news-list\news-list.component.spec.js
C:\Projects\mme2\mme2\NewsWeb\wwwroot\app\components\news-list\news-list.component.spec.js.map
C:\Projects\mme2\mme2\NewsWeb\wwwroot\app\components\left-side\left-side.component.spec.js
C:\Projects\mme2\mme2\NewsWeb\wwwroot\app\components\left-side\left-side.component.spec.js.map
C:\Projects\mme2\mme2\NewsWeb\obj\Release\netcoreapp2.0\PubTmp\Out\wwwroot\app\app.component.js
C:\Projects\mme2\mme2\NewsWeb\obj\Release\netcoreapp2.0\PubTmp\Out\wwwroot\app\app.component.js.map
C:\Projects\mme2\mme2\NewsWeb\obj\Release\netcoreapp2.0\PubTmp\Out\wwwroot\app\app.component.spec.js
C:\Projects\mme2\mme2\NewsWeb\obj\Release\netcoreapp2.0\PubTmp\Out\wwwroot\app\app.component.spec.js.map
C:\Projects\mme2\mme2\NewsWeb\obj\Release\netcoreapp2.0\PubTmp\Out\wwwroot\app\components\news-list\news-list.component.js
C:\Projects\mme2\mme2\NewsWeb\obj\Release\netcoreapp2.0\PubTmp\Out\wwwroot\app\components\news-list\news-list.component.js.map
C:\Projects\mme2\mme2\NewsWeb\obj\Release\netcoreapp2.0\PubTmp\Out\wwwroot\app\components\left-side\left-side.component.js
C:\Projects\mme2\mme2\NewsWeb\obj\Release\netcoreapp2.0\PubTmp\Out\wwwroot\app\components\left-side\left-side.component.js.map
C:\Projects\mme2\mme2\NewsWeb\obj\Release\netcoreapp2.0\PubTmp\Out\wwwroot\app\app.module.js
C:\Projects\mme2\mme2\NewsWeb\obj\Release\netcoreapp2.0\PubTmp\Out\wwwroot\app\app.module.js.map
C:\Projects\mme2\mme2\NewsWeb\obj\Release\netcoreapp2.0\PubTmp\Out\wwwroot\app\main.js
C:\Projects\mme2\mme2\NewsWeb\obj\Release\netcoreapp2.0\PubTmp\Out\wwwroot\app\main.js.map
C:\Projects\mme2\mme2\NewsWeb\obj\Release\netcoreapp2.0\PubTmp\Out\wwwroot\app\components\news-list\news-list.component.spec.js
C:\Projects\mme2\mme2\NewsWeb\obj\Release\netcoreapp2.0\PubTmp\Out\wwwroot\app\components\news-list\news-list.component.spec.js.map
C:\Projects\mme2\mme2\NewsWeb\obj\Release\netcoreapp2.0\PubTmp\Out\wwwroot\app\components\left-side\left-side.component.spec.js
C:\Projects\mme2\mme2\NewsWeb\obj\Release\netcoreapp2.0\PubTmp\Out\wwwroot\app\components\left-side\left-side.component.spec.js.map
C:\Projects\mme2\mme2\NewsWeb\wwwroot\app\app.component.js
C:\Projects\mme2\mme2\NewsWeb\wwwroot\app\app.component.js.map
C:\Projects\mme2\mme2\NewsWeb\wwwroot\app\app.component.spec.js
C:\Projects\mme2\mme2\NewsWeb\wwwroot\app\app.component.spec.js.map
C:\Projects\mme2\mme2\NewsWeb\wwwroot\app\models\News.js
C:\Projects\mme2\mme2\NewsWeb\wwwroot\app\models\News.js.map
C:\Projects\mme2\mme2\NewsWeb\wwwroot\app\services\HttpService\HttpService.js
C:\Projects\mme2\mme2\NewsWeb\wwwroot\app\services\HttpService\HttpService.js.map
C:\Projects\mme2\mme2\NewsWeb\wwwroot\app\services\NewsService.js
C:\Projects\mme2\mme2\NewsWeb\wwwroot\app\services\NewsService.js.map
C:\Projects\mme2\mme2\NewsWeb\wwwroot\app\components\news-list\news-list.component.js
C:\Projects\mme2\mme2\NewsWeb\wwwroot\app\components\news-list\news-list.component.js.map
C:\Projects\mme2\mme2\NewsWeb\wwwroot\app\components\left-side\left-side.component.js
C:\Projects\mme2\mme2\NewsWeb\wwwroot\app\components\left-side\left-side.component.js.map
C:\Projects\mme2\mme2\NewsWeb\wwwroot\app\app.module.js
C:\Projects\mme2\mme2\NewsWeb\wwwroot\app\app.module.js.map
C:\Projects\mme2\mme2\NewsWeb\wwwroot\app\main.js
C:\Projects\mme2\mme2\NewsWeb\wwwroot\app\main.js.map
C:\Projects\mme2\mme2\NewsWeb\wwwroot\app\components\news-list\news-list.component.spec.js
C:\Projects\mme2\mme2\NewsWeb\wwwroot\app\components\news-list\news-list.component.spec.js.map
C:\Projects\mme2\mme2\NewsWeb\wwwroot\app\components\left-side\left-side.component.spec.js
C:\Projects\mme2\mme2\NewsWeb\wwwroot\app\components\left-side\left-side.component.spec.js.map
C:\Projects\mme2\mme2\NewsWeb\obj\Release\netcoreapp2.0\PubTmp\Out\wwwroot\app\app.component.js
C:\Projects\mme2\mme2\NewsWeb\obj\Release\netcoreapp2.0\PubTmp\Out\wwwroot\app\app.component.js.map
C:\Projects\mme2\mme2\NewsWeb\obj\Release\netcoreapp2.0\PubTmp\Out\wwwroot\app\app.component.spec.js
C:\Projects\mme2\mme2\NewsWeb\obj\Release\netcoreapp2.0\PubTmp\Out\wwwroot\app\app.component.spec.js.map
C:\Projects\mme2\mme2\NewsWeb\obj\Release\netcoreapp2.0\PubTmp\Out\wwwroot\app\components\news-list\news-list.component.js
C:\Projects\mme2\mme2\NewsWeb\obj\Release\netcoreapp2.0\PubTmp\Out\wwwroot\app\components\news-list\news-list.component.js.map
C:\Projects\mme2\mme2\NewsWeb\obj\Release\netcoreapp2.0\PubTmp\Out\wwwroot\app\components\left-side\left-side.component.js
C:\Projects\mme2\mme2\NewsWeb\obj\Release\netcoreapp2.0\PubTmp\Out\wwwroot\app\components\left-side\left-side.component.js.map
C:\Projects\mme2\mme2\NewsWeb\obj\Release\netcoreapp2.0\PubTmp\Out\wwwroot\app\app.module.js
C:\Projects\mme2\mme2\NewsWeb\obj\Release\netcoreapp2.0\PubTmp\Out\wwwroot\app\app.module.js.map
C:\Projects\mme2\mme2\NewsWeb\obj\Release\netcoreapp2.0\PubTmp\Out\wwwroot\app\main.js
C:\Projects\mme2\mme2\NewsWeb\obj\Release\netcoreapp2.0\PubTmp\Out\wwwroot\app\main.js.map
C:\Projects\mme2\mme2\NewsWeb\obj\Release\netcoreapp2.0\PubTmp\Out\wwwroot\app\components\news-list\news-list.component.spec.js
C:\Projects\mme2\mme2\NewsWeb\obj\Release\netcoreapp2.0\PubTmp\Out\wwwroot\app\components\news-list\news-list.component.spec.js.map
C:\Projects\mme2\mme2\NewsWeb\obj\Release\netcoreapp2.0\PubTmp\Out\wwwroot\app\components\left-side\left-side.component.spec.js
C:\Projects\mme2\mme2\NewsWeb\obj\Release\netcoreapp2.0\PubTmp\Out\wwwroot\app\components\left-side\left-side.component.spec.js.map
C:\Projects\mme2\mme2\NewsWeb\wwwroot\app\app.component.js
C:\Projects\mme2\mme2\NewsWeb\wwwroot\app\app.component.js.map
C:\Projects\mme2\mme2\NewsWeb\wwwroot\app\app.component.spec.js
C:\Projects\mme2\mme2\NewsWeb\wwwroot\app\app.component.spec.js.map
C:\Projects\mme2\mme2\NewsWeb\wwwroot\app\models\News.js
C:\Projects\mme2\mme2\NewsWeb\wwwroot\app\models\News.js.map
C:\Projects\mme2\mme2\NewsWeb\wwwroot\app\services\HttpService\HttpService.js
C:\Projects\mme2\mme2\NewsWeb\wwwroot\app\services\HttpService\HttpService.js.map
C:\Projects\mme2\mme2\NewsWeb\wwwroot\app\services\NewsService.js
C:\Projects\mme2\mme2\NewsWeb\wwwroot\app\services\NewsService.js.map
C:\Projects\mme2\mme2\NewsWeb\wwwroot\app\components\news-list\news-list.component.js
C:\Projects\mme2\mme2\NewsWeb\wwwroot\app\components\news-list\news-list.component.js.map
C:\Projects\mme2\mme2\NewsWeb\wwwroot\app\components\left-side\left-side.component.js
C:\Projects\mme2\mme2\NewsWeb\wwwroot\app\components\left-side\left-side.component.js.map
C:\Projects\mme2\mme2\NewsWeb\wwwroot\app\app.module.js
C:\Projects\mme2\mme2\NewsWeb\wwwroot\app\app.module.js.map
C:\Projects\mme2\mme2\NewsWeb\wwwroot\app\main.js
C:\Projects\mme2\mme2\NewsWeb\wwwroot\app\main.js.map
C:\Projects\mme2\mme2\NewsWeb\wwwroot\app\components\news-list\news-list.component.spec.js
C:\Projects\mme2\mme2\NewsWeb\wwwroot\app\components\news-list\news-list.component.spec.js.map
C:\Projects\mme2\mme2\NewsWeb\wwwroot\app\components\left-side\left-side.component.spec.js
C:\Projects\mme2\mme2\NewsWeb\wwwroot\app\components\left-side\left-side.component.spec.js.map
C:\Projects\mme2\mme2\NewsWeb\wwwroot\app\app.component.js
C:\Projects\mme2\mme2\NewsWeb\wwwroot\app\app.component.js.map
C:\Projects\mme2\mme2\NewsWeb\wwwroot\app\app.component.spec.js
C:\Projects\mme2\mme2\NewsWeb\wwwroot\app\app.component.spec.js.map
C:\Projects\mme2\mme2\NewsWeb\wwwroot\app\models\News.js
C:\Projects\mme2\mme2\NewsWeb\wwwroot\app\models\News.js.map
C:\Projects\mme2\mme2\NewsWeb\wwwroot\app\services\HttpService\HttpService.js
C:\Projects\mme2\mme2\NewsWeb\wwwroot\app\services\HttpService\HttpService.js.map
C:\Projects\mme2\mme2\NewsWeb\wwwroot\app\services\NewsService.js
C:\Projects\mme2\mme2\NewsWeb\wwwroot\app\services\NewsService.js.map
C:\Projects\mme2\mme2\NewsWeb\wwwroot\app\components\news-list\news-list.component.js
C:\Projects\mme2\mme2\NewsWeb\wwwroot\app\components\news-list\news-list.component.js.map
C:\Projects\mme2\mme2\NewsWeb\wwwroot\app\components\left-side\left-side.component.js
C:\Projects\mme2\mme2\NewsWeb\wwwroot\app\components\left-side\left-side.component.js.map
C:\Projects\mme2\mme2\NewsWeb\wwwroot\app\app.module.js
C:\Projects\mme2\mme2\NewsWeb\wwwroot\app\app.module.js.map
C:\Projects\mme2\mme2\NewsWeb\wwwroot\app\main.js
C:\Projects\mme2\mme2\NewsWeb\wwwroot\app\main.js.map
C:\Projects\mme2\mme2\NewsWeb\wwwroot\app\components\news-list\news-list.component.spec.js
C:\Projects\mme2\mme2\NewsWeb\wwwroot\app\components\news-list\news-list.component.spec.js.map
C:\Projects\mme2\mme2\NewsWeb\wwwroot\app\components\left-side\left-side.component.spec.js
C:\Projects\mme2\mme2\NewsWeb\wwwroot\app\components\left-side\left-side.component.spec.js.map
C:\Projects\mme2\mme2\NewsWeb\wwwroot\app\app.component.js
C:\Projects\mme2\mme2\NewsWeb\wwwroot\app\app.component.js.map
C:\Projects\mme2\mme2\NewsWeb\wwwroot\app\app.component.spec.js
C:\Projects\mme2\mme2\NewsWeb\wwwroot\app\app.component.spec.js.map
C:\Projects\mme2\mme2\NewsWeb\wwwroot\app\models\News.js
C:\Projects\mme2\mme2\NewsWeb\wwwroot\app\models\News.js.map
C:\Projects\mme2\mme2\NewsWeb\wwwroot\app\services\HttpService\HttpService.js
C:\Projects\mme2\mme2\NewsWeb\wwwroot\app\services\HttpService\HttpService.js.map
C:\Projects\mme2\mme2\NewsWeb\wwwroot\app\services\NewsService.js
C:\Projects\mme2\mme2\NewsWeb\wwwroot\app\services\NewsService.js.map
C:\Projects\mme2\mme2\NewsWeb\wwwroot\app\components\news-list\news-list.component.js
C:\Projects\mme2\mme2\NewsWeb\wwwroot\app\components\news-list\news-list.component.js.map
C:\Projects\mme2\mme2\NewsWeb\wwwroot\app\components\left-side\left-side.component.js
C:\Projects\mme2\mme2\NewsWeb\wwwroot\app\components\left-side\left-side.component.js.map
C:\Projects\mme2\mme2\NewsWeb\wwwroot\app\app.module.js
C:\Projects\mme2\mme2\NewsWeb\wwwroot\app\app.module.js.map
C:\Projects\mme2\mme2\NewsWeb\wwwroot\app\main.js
C:\Projects\mme2\mme2\NewsWeb\wwwroot\app\main.js.map
C:\Projects\mme2\mme2\NewsWeb\wwwroot\app\components\news-list\news-list.component.spec.js
C:\Projects\mme2\mme2\NewsWeb\wwwroot\app\components\news-list\news-list.component.spec.js.map
C:\Projects\mme2\mme2\NewsWeb\wwwroot\app\components\left-side\left-side.component.spec.js
C:\Projects\mme2\mme2\NewsWeb\wwwroot\app\components\left-side\left-side.component.spec.js.map
C:\Projects\mme2\mme2\NewsWeb\wwwroot\app\app.component.js
C:\Projects\mme2\mme2\NewsWeb\wwwroot\app\app.component.js.map
C:\Projects\mme2\mme2\NewsWeb\wwwroot\app\app.component.spec.js
C:\Projects\mme2\mme2\NewsWeb\wwwroot\app\app.component.spec.js.map
C:\Projects\mme2\mme2\NewsWeb\wwwroot\app\models\News.js
C:\Projects\mme2\mme2\NewsWeb\wwwroot\app\models\News.js.map
C:\Projects\mme2\mme2\NewsWeb\wwwroot\app\services\HttpService\HttpService.js
C:\Projects\mme2\mme2\NewsWeb\wwwroot\app\services\HttpService\HttpService.js.map
C:\Projects\mme2\mme2\NewsWeb\wwwroot\app\services\NewsService.js
C:\Projects\mme2\mme2\NewsWeb\wwwroot\app\services\NewsService.js.map
C:\Projects\mme2\mme2\NewsWeb\wwwroot\app\components\news-list\news-list.component.js
C:\Projects\mme2\mme2\NewsWeb\wwwroot\app\components\news-list\news-list.component.js.map
C:\Projects\mme2\mme2\NewsWeb\wwwroot\app\components\left-side\left-side.component.js
C:\Projects\mme2\mme2\NewsWeb\wwwroot\app\components\left-side\left-side.component.js.map
C:\Projects\mme2\mme2\NewsWeb\wwwroot\app\app.module.js
C:\Projects\mme2\mme2\NewsWeb\wwwroot\app\app.module.js.map
C:\Projects\mme2\mme2\NewsWeb\wwwroot\app\main.js
C:\Projects\mme2\mme2\NewsWeb\wwwroot\app\main.js.map
C:\Projects\mme2\mme2\NewsWeb\wwwroot\app\components\news-list\news-list.component.spec.js
C:\Projects\mme2\mme2\NewsWeb\wwwroot\app\components\news-list\news-list.component.spec.js.map
C:\Projects\mme2\mme2\NewsWeb\wwwroot\app\components\left-side\left-side.component.spec.js
C:\Projects\mme2\mme2\NewsWeb\wwwroot\app\components\left-side\left-side.component.spec.js.map
C:\Projects\mme2\mme2\NewsWeb\wwwroot\app\app.component.js
C:\Projects\mme2\mme2\NewsWeb\wwwroot\app\app.component.js.map
C:\Projects\mme2\mme2\NewsWeb\wwwroot\app\app.component.spec.js
C:\Projects\mme2\mme2\NewsWeb\wwwroot\app\app.component.spec.js.map
C:\Projects\mme2\mme2\NewsWeb\wwwroot\app\models\News.js
C:\Projects\mme2\mme2\NewsWeb\wwwroot\app\models\News.js.map
C:\Projects\mme2\mme2\NewsWeb\wwwroot\app\services\HttpService\HttpService.js
C:\Projects\mme2\mme2\NewsWeb\wwwroot\app\services\HttpService\HttpService.js.map
C:\Projects\mme2\mme2\NewsWeb\wwwroot\app\services\NewsService.js
C:\Projects\mme2\mme2\NewsWeb\wwwroot\app\services\NewsService.js.map
C:\Projects\mme2\mme2\NewsWeb\wwwroot\app\components\news-list\news-list.component.js
C:\Projects\mme2\mme2\NewsWeb\wwwroot\app\components\news-list\news-list.component.js.map
C:\Projects\mme2\mme2\NewsWeb\wwwroot\app\components\left-side\left-side.component.js
C:\Projects\mme2\mme2\NewsWeb\wwwroot\app\components\left-side\left-side.component.js.map
C:\Projects\mme2\mme2\NewsWeb\wwwroot\app\app.module.js
C:\Projects\mme2\mme2\NewsWeb\wwwroot\app\app.module.js.map
C:\Projects\mme2\mme2\NewsWeb\wwwroot\app\main.js
C:\Projects\mme2\mme2\NewsWeb\wwwroot\app\main.js.map
C:\Projects\mme2\mme2\NewsWeb\wwwroot\app\components\news-list\news-list.component.spec.js
C:\Projects\mme2\mme2\NewsWeb\wwwroot\app\components\news-list\news-list.component.spec.js.map
C:\Projects\mme2\mme2\NewsWeb\wwwroot\app\components\left-side\left-side.component.spec.js
C:\Projects\mme2\mme2\NewsWeb\wwwroot\app\components\left-side\left-side.component.spec.js.map
C:\Projects\mme2\mme2\NewsWeb\wwwroot\app\app.component.js
C:\Projects\mme2\mme2\NewsWeb\wwwroot\app\app.component.js.map
C:\Projects\mme2\mme2\NewsWeb\wwwroot\app\app.component.spec.js
C:\Projects\mme2\mme2\NewsWeb\wwwroot\app\app.component.spec.js.map
C:\Projects\mme2\mme2\NewsWeb\wwwroot\app\models\News.js
C:\Projects\mme2\mme2\NewsWeb\wwwroot\app\models\News.js.map
C:\Projects\mme2\mme2\NewsWeb\wwwroot\app\services\HttpService\HttpService.js
C:\Projects\mme2\mme2\NewsWeb\wwwroot\app\services\HttpService\HttpService.js.map
C:\Projects\mme2\mme2\NewsWeb\wwwroot\app\services\NewsService.js
C:\Projects\mme2\mme2\NewsWeb\wwwroot\app\services\NewsService.js.map
C:\Projects\mme2\mme2\NewsWeb\wwwroot\app\components\news-list\news-list.component.js
C:\Projects\mme2\mme2\NewsWeb\wwwroot\app\components\news-list\news-list.component.js.map
C:\Projects\mme2\mme2\NewsWeb\wwwroot\app\components\left-side\left-side.component.js
C:\Projects\mme2\mme2\NewsWeb\wwwroot\app\components\left-side\left-side.component.js.map
C:\Projects\mme2\mme2\NewsWeb\wwwroot\app\app.module.js
C:\Projects\mme2\mme2\NewsWeb\wwwroot\app\app.module.js.map
C:\Projects\mme2\mme2\NewsWeb\wwwroot\app\main.js
C:\Projects\mme2\mme2\NewsWeb\wwwroot\app\main.js.map
C:\Projects\mme2\mme2\NewsWeb\wwwroot\app\components\news-list\news-list.component.spec.js
C:\Projects\mme2\mme2\NewsWeb\wwwroot\app\components\news-list\news-list.component.spec.js.map
C:\Projects\mme2\mme2\NewsWeb\wwwroot\app\components\left-side\left-side.component.spec.js
C:\Projects\mme2\mme2\NewsWeb\wwwroot\app\components\left-side\left-side.component.spec.js.map
C:\Projects\mme2\mme2\NewsWeb\wwwroot\app\app.component.js
C:\Projects\mme2\mme2\NewsWeb\wwwroot\app\app.component.js.map
C:\Projects\mme2\mme2\NewsWeb\wwwroot\app\app.component.spec.js
C:\Projects\mme2\mme2\NewsWeb\wwwroot\app\app.component.spec.js.map
C:\Projects\mme2\mme2\NewsWeb\wwwroot\app\models\News.js
C:\Projects\mme2\mme2\NewsWeb\wwwroot\app\models\News.js.map
C:\Projects\mme2\mme2\NewsWeb\wwwroot\app\services\HttpService\HttpService.js
C:\Projects\mme2\mme2\NewsWeb\wwwroot\app\services\HttpService\HttpService.js.map
C:\Projects\mme2\mme2\NewsWeb\wwwroot\app\services\NewsService.js
C:\Projects\mme2\mme2\NewsWeb\wwwroot\app\services\NewsService.js.map
C:\Projects\mme2\mme2\NewsWeb\wwwroot\app\components\news-list\news-list.component.js
C:\Projects\mme2\mme2\NewsWeb\wwwroot\app\components\news-list\news-list.component.js.map
C:\Projects\mme2\mme2\NewsWeb\wwwroot\app\components\left-side\left-side.component.js
C:\Projects\mme2\mme2\NewsWeb\wwwroot\app\components\left-side\left-side.component.js.map
C:\Projects\mme2\mme2\NewsWeb\wwwroot\app\app.module.js
C:\Projects\mme2\mme2\NewsWeb\wwwroot\app\app.module.js.map
C:\Projects\mme2\mme2\NewsWeb\wwwroot\app\main.js
C:\Projects\mme2\mme2\NewsWeb\wwwroot\app\main.js.map
C:\Projects\mme2\mme2\NewsWeb\wwwroot\app\components\news-list\news-list.component.spec.js
C:\Projects\mme2\mme2\NewsWeb\wwwroot\app\components\news-list\news-list.component.spec.js.map
C:\Projects\mme2\mme2\NewsWeb\wwwroot\app\components\left-side\left-side.component.spec.js
C:\Projects\mme2\mme2\NewsWeb\wwwroot\app\components\left-side\left-side.component.spec.js.map
C:\Projects\mme2\mme2\NewsWeb\wwwroot\app\app.component.js
C:\Projects\mme2\mme2\NewsWeb\wwwroot\app\app.component.js.map
C:\Projects\mme2\mme2\NewsWeb\wwwroot\app\app.component.spec.js
C:\Projects\mme2\mme2\NewsWeb\wwwroot\app\app.component.spec.js.map
C:\Projects\mme2\mme2\NewsWeb\wwwroot\app\models\News.js
C:\Projects\mme2\mme2\NewsWeb\wwwroot\app\models\News.js.map
C:\Projects\mme2\mme2\NewsWeb\wwwroot\app\services\HttpService\HttpService.js
C:\Projects\mme2\mme2\NewsWeb\wwwroot\app\services\HttpService\HttpService.js.map
C:\Projects\mme2\mme2\NewsWeb\wwwroot\app\services\NewsService.js
C:\Projects\mme2\mme2\NewsWeb\wwwroot\app\services\NewsService.js.map
C:\Projects\mme2\mme2\NewsWeb\wwwroot\app\components\news-list\news-list.component.js
C:\Projects\mme2\mme2\NewsWeb\wwwroot\app\components\news-list\news-list.component.js.map
C:\Projects\mme2\mme2\NewsWeb\wwwroot\app\components\left-side\left-side.component.js
C:\Projects\mme2\mme2\NewsWeb\wwwroot\app\components\left-side\left-side.component.js.map
C:\Projects\mme2\mme2\NewsWeb\wwwroot\app\app.module.js
C:\Projects\mme2\mme2\NewsWeb\wwwroot\app\app.module.js.map
C:\Projects\mme2\mme2\NewsWeb\wwwroot\app\main.js
C:\Projects\mme2\mme2\NewsWeb\wwwroot\app\main.js.map
C:\Projects\mme2\mme2\NewsWeb\wwwroot\app\components\news-list\news-list.component.spec.js
C:\Projects\mme2\mme2\NewsWeb\wwwroot\app\components\news-list\news-list.component.spec.js.map
C:\Projects\mme2\mme2\NewsWeb\wwwroot\app\components\left-side\left-side.component.spec.js
C:\Projects\mme2\mme2\NewsWeb\wwwroot\app\components\left-side\left-side.component.spec.js.map
C:\Projects\mme2\mme2\NewsWeb\wwwroot\app\app.component.js
C:\Projects\mme2\mme2\NewsWeb\wwwroot\app\app.component.js.map
C:\Projects\mme2\mme2\NewsWeb\wwwroot\app\app.component.spec.js
C:\Projects\mme2\mme2\NewsWeb\wwwroot\app\app.component.spec.js.map
C:\Projects\mme2\mme2\NewsWeb\wwwroot\app\models\News.js
C:\Projects\mme2\mme2\NewsWeb\wwwroot\app\models\News.js.map
C:\Projects\mme2\mme2\NewsWeb\wwwroot\app\services\HttpService\HttpService.js
C:\Projects\mme2\mme2\NewsWeb\wwwroot\app\services\HttpService\HttpService.js.map
C:\Projects\mme2\mme2\NewsWeb\wwwroot\app\services\NewsService.js
C:\Projects\mme2\mme2\NewsWeb\wwwroot\app\services\NewsService.js.map
C:\Projects\mme2\mme2\NewsWeb\wwwroot\app\components\news-list\news-list.component.js
C:\Projects\mme2\mme2\NewsWeb\wwwroot\app\components\news-list\news-list.component.js.map
C:\Projects\mme2\mme2\NewsWeb\wwwroot\app\components\left-side\left-side.component.js
C:\Projects\mme2\mme2\NewsWeb\wwwroot\app\components\left-side\left-side.component.js.map
C:\Projects\mme2\mme2\NewsWeb\wwwroot\app\app.module.js
C:\Projects\mme2\mme2\NewsWeb\wwwroot\app\app.module.js.map
C:\Projects\mme2\mme2\NewsWeb\wwwroot\app\main.js
C:\Projects\mme2\mme2\NewsWeb\wwwroot\app\main.js.map
C:\Projects\mme2\mme2\NewsWeb\wwwroot\app\components\news-list\news-list.component.spec.js
C:\Projects\mme2\mme2\NewsWeb\wwwroot\app\components\news-list\news-list.component.spec.js.map
C:\Projects\mme2\mme2\NewsWeb\wwwroot\app\components\left-side\left-side.component.spec.js
C:\Projects\mme2\mme2\NewsWeb\wwwroot\app\components\left-side\left-side.component.spec.js.map
C:\Projects\mme2\mme2\NewsWeb\wwwroot\app\app.component.js
C:\Projects\mme2\mme2\NewsWeb\wwwroot\app\app.component.js.map
C:\Projects\mme2\mme2\NewsWeb\wwwroot\app\app.component.spec.js
C:\Projects\mme2\mme2\NewsWeb\wwwroot\app\app.component.spec.js.map
C:\Projects\mme2\mme2\NewsWeb\wwwroot\app\models\News.js
C:\Projects\mme2\mme2\NewsWeb\wwwroot\app\models\News.js.map
C:\Projects\mme2\mme2\NewsWeb\wwwroot\app\services\HttpService\HttpService.js
C:\Projects\mme2\mme2\NewsWeb\wwwroot\app\services\HttpService\HttpService.js.map
C:\Projects\mme2\mme2\NewsWeb\wwwroot\app\services\NewsService.js
C:\Projects\mme2\mme2\NewsWeb\wwwroot\app\services\NewsService.js.map
C:\Projects\mme2\mme2\NewsWeb\wwwroot\app\components\news-list\news-list.component.js
C:\Projects\mme2\mme2\NewsWeb\wwwroot\app\components\news-list\news-list.component.js.map
C:\Projects\mme2\mme2\NewsWeb\wwwroot\app\components\left-side\left-side.component.js
C:\Projects\mme2\mme2\NewsWeb\wwwroot\app\components\left-side\left-side.component.js.map
C:\Projects\mme2\mme2\NewsWeb\wwwroot\app\app.module.js
C:\Projects\mme2\mme2\NewsWeb\wwwroot\app\app.module.js.map
C:\Projects\mme2\mme2\NewsWeb\wwwroot\app\main.js
C:\Projects\mme2\mme2\NewsWeb\wwwroot\app\main.js.map
C:\Projects\mme2\mme2\NewsWeb\wwwroot\app\components\news-list\news-list.component.spec.js
C:\Projects\mme2\mme2\NewsWeb\wwwroot\app\components\news-list\news-list.component.spec.js.map
C:\Projects\mme2\mme2\NewsWeb\wwwroot\app\components\left-side\left-side.component.spec.js
C:\Projects\mme2\mme2\NewsWeb\wwwroot\app\components\left-side\left-side.component.spec.js.map
C:\Projects\mme2\mme2\NewsWeb\wwwroot\app\app.component.js
C:\Projects\mme2\mme2\NewsWeb\wwwroot\app\app.component.js.map
C:\Projects\mme2\mme2\NewsWeb\wwwroot\app\app.component.spec.js
C:\Projects\mme2\mme2\NewsWeb\wwwroot\app\app.component.spec.js.map
C:\Projects\mme2\mme2\NewsWeb\wwwroot\app\models\News.js
C:\Projects\mme2\mme2\NewsWeb\wwwroot\app\models\News.js.map
C:\Projects\mme2\mme2\NewsWeb\wwwroot\app\services\HttpService\HttpService.js
C:\Projects\mme2\mme2\NewsWeb\wwwroot\app\services\HttpService\HttpService.js.map
C:\Projects\mme2\mme2\NewsWeb\wwwroot\app\services\NewsService.js
C:\Projects\mme2\mme2\NewsWeb\wwwroot\app\services\NewsService.js.map
C:\Projects\mme2\mme2\NewsWeb\wwwroot\app\components\news-list\news-list.component.js
C:\Projects\mme2\mme2\NewsWeb\wwwroot\app\components\news-list\news-list.component.js.map
C:\Projects\mme2\mme2\NewsWeb\wwwroot\app\components\left-side\left-side.component.js
C:\Projects\mme2\mme2\NewsWeb\wwwroot\app\components\left-side\left-side.component.js.map
C:\Projects\mme2\mme2\NewsWeb\wwwroot\app\app.module.js
C:\Projects\mme2\mme2\NewsWeb\wwwroot\app\app.module.js.map
C:\Projects\mme2\mme2\NewsWeb\wwwroot\app\main.js
C:\Projects\mme2\mme2\NewsWeb\wwwroot\app\main.js.map
C:\Projects\mme2\mme2\NewsWeb\wwwroot\app\components\news-list\news-list.component.spec.js
C:\Projects\mme2\mme2\NewsWeb\wwwroot\app\components\news-list\news-list.component.spec.js.map
C:\Projects\mme2\mme2\NewsWeb\wwwroot\app\components\left-side\left-side.component.spec.js
C:\Projects\mme2\mme2\NewsWeb\wwwroot\app\components\left-side\left-side.component.spec.js.map
C:\Projects\mme2\mme2\NewsWeb\wwwroot\app\app.component.js
C:\Projects\mme2\mme2\NewsWeb\wwwroot\app\app.component.js.map
C:\Projects\mme2\mme2\NewsWeb\wwwroot\app\app.component.spec.js
C:\Projects\mme2\mme2\NewsWeb\wwwroot\app\app.component.spec.js.map
C:\Projects\mme2\mme2\NewsWeb\wwwroot\app\models\News.js
C:\Projects\mme2\mme2\NewsWeb\wwwroot\app\models\News.js.map
C:\Projects\mme2\mme2\NewsWeb\wwwroot\app\services\HttpService\HttpService.js
C:\Projects\mme2\mme2\NewsWeb\wwwroot\app\services\HttpService\HttpService.js.map
C:\Projects\mme2\mme2\NewsWeb\wwwroot\app\services\NewsService.js
C:\Projects\mme2\mme2\NewsWeb\wwwroot\app\services\NewsService.js.map
C:\Projects\mme2\mme2\NewsWeb\wwwroot\app\components\news-list\news-list.component.js
C:\Projects\mme2\mme2\NewsWeb\wwwroot\app\components\news-list\news-list.component.js.map
C:\Projects\mme2\mme2\NewsWeb\wwwroot\app\components\left-side\left-side.component.js
C:\Projects\mme2\mme2\NewsWeb\wwwroot\app\components\left-side\left-side.component.js.map
C:\Projects\mme2\mme2\NewsWeb\wwwroot\app\app.module.js
C:\Projects\mme2\mme2\NewsWeb\wwwroot\app\app.module.js.map
C:\Projects\mme2\mme2\NewsWeb\wwwroot\app\main.js
C:\Projects\mme2\mme2\NewsWeb\wwwroot\app\main.js.map
C:\Projects\mme2\mme2\NewsWeb\wwwroot\app\components\news-list\news-list.component.spec.js
C:\Projects\mme2\mme2\NewsWeb\wwwroot\app\components\news-list\news-list.component.spec.js.map
C:\Projects\mme2\mme2\NewsWeb\wwwroot\app\components\left-side\left-side.component.spec.js
C:\Projects\mme2\mme2\NewsWeb\wwwroot\app\components\left-side\left-side.component.spec.js.map
C:\Projects\mme2\mme2\NewsWeb\wwwroot\app\app.component.js
C:\Projects\mme2\mme2\NewsWeb\wwwroot\app\app.component.js.map
C:\Projects\mme2\mme2\NewsWeb\wwwroot\app\app.component.spec.js
C:\Projects\mme2\mme2\NewsWeb\wwwroot\app\app.component.spec.js.map
C:\Projects\mme2\mme2\NewsWeb\wwwroot\app\models\News.js
C:\Projects\mme2\mme2\NewsWeb\wwwroot\app\models\News.js.map
C:\Projects\mme2\mme2\NewsWeb\wwwroot\app\services\HttpService\HttpService.js
C:\Projects\mme2\mme2\NewsWeb\wwwroot\app\services\HttpService\HttpService.js.map
C:\Projects\mme2\mme2\NewsWeb\wwwroot\app\services\NewsService.js
C:\Projects\mme2\mme2\NewsWeb\wwwroot\app\services\NewsService.js.map
C:\Projects\mme2\mme2\NewsWeb\wwwroot\app\components\news-list\news-list.component.js
C:\Projects\mme2\mme2\NewsWeb\wwwroot\app\components\news-list\news-list.component.js.map
C:\Projects\mme2\mme2\NewsWeb\wwwroot\app\components\left-side\left-side.component.js
C:\Projects\mme2\mme2\NewsWeb\wwwroot\app\components\left-side\left-side.component.js.map
C:\Projects\mme2\mme2\NewsWeb\wwwroot\app\app.module.js
C:\Projects\mme2\mme2\NewsWeb\wwwroot\app\app.module.js.map
C:\Projects\mme2\mme2\NewsWeb\wwwroot\app\main.js
C:\Projects\mme2\mme2\NewsWeb\wwwroot\app\main.js.map
C:\Projects\mme2\mme2\NewsWeb\wwwroot\app\components\news-list\news-list.component.spec.js
C:\Projects\mme2\mme2\NewsWeb\wwwroot\app\components\news-list\news-list.component.spec.js.map
C:\Projects\mme2\mme2\NewsWeb\wwwroot\app\components\left-side\left-side.component.spec.js
C:\Projects\mme2\mme2\NewsWeb\wwwroot\app\components\left-side\left-side.component.spec.js.map
C:\Projects\mme2\mme2\NewsWeb\wwwroot\app\app.component.js
C:\Projects\mme2\mme2\NewsWeb\wwwroot\app\app.component.js.map
C:\Projects\mme2\mme2\NewsWeb\wwwroot\app\app.component.spec.js
C:\Projects\mme2\mme2\NewsWeb\wwwroot\app\app.component.spec.js.map
C:\Projects\mme2\mme2\NewsWeb\wwwroot\app\models\News.js
C:\Projects\mme2\mme2\NewsWeb\wwwroot\app\models\News.js.map
C:\Projects\mme2\mme2\NewsWeb\wwwroot\app\services\HttpService\HttpService.js
C:\Projects\mme2\mme2\NewsWeb\wwwroot\app\services\HttpService\HttpService.js.map
C:\Projects\mme2\mme2\NewsWeb\wwwroot\app\services\NewsService.js
C:\Projects\mme2\mme2\NewsWeb\wwwroot\app\services\NewsService.js.map
C:\Projects\mme2\mme2\NewsWeb\wwwroot\app\components\news-list\news-list.component.js
C:\Projects\mme2\mme2\NewsWeb\wwwroot\app\components\news-list\news-list.component.js.map
C:\Projects\mme2\mme2\NewsWeb\wwwroot\app\components\left-side\left-side.component.js
C:\Projects\mme2\mme2\NewsWeb\wwwroot\app\components\left-side\left-side.component.js.map
C:\Projects\mme2\mme2\NewsWeb\wwwroot\app\app.module.js
C:\Projects\mme2\mme2\NewsWeb\wwwroot\app\app.module.js.map
C:\Projects\mme2\mme2\NewsWeb\wwwroot\app\main.js
C:\Projects\mme2\mme2\NewsWeb\wwwroot\app\main.js.map
C:\Projects\mme2\mme2\NewsWeb\wwwroot\app\components\news-list\news-list.component.spec.js
C:\Projects\mme2\mme2\NewsWeb\wwwroot\app\components\news-list\news-list.component.spec.js.map
C:\Projects\mme2\mme2\NewsWeb\wwwroot\app\components\left-side\left-side.component.spec.js
C:\Projects\mme2\mme2\NewsWeb\wwwroot\app\components\left-side\left-side.component.spec.js.map
C:\Projects\mme2\mme2\NewsWeb\wwwroot\app\app.component.js
C:\Projects\mme2\mme2\NewsWeb\wwwroot\app\app.component.js.map
C:\Projects\mme2\mme2\NewsWeb\wwwroot\app\app.component.spec.js
C:\Projects\mme2\mme2\NewsWeb\wwwroot\app\app.component.spec.js.map
C:\Projects\mme2\mme2\NewsWeb\wwwroot\app\models\News.js
C:\Projects\mme2\mme2\NewsWeb\wwwroot\app\models\News.js.map
C:\Projects\mme2\mme2\NewsWeb\wwwroot\app\services\HttpService\HttpService.js
C:\Projects\mme2\mme2\NewsWeb\wwwroot\app\services\HttpService\HttpService.js.map
C:\Projects\mme2\mme2\NewsWeb\wwwroot\app\services\NewsService.js
C:\Projects\mme2\mme2\NewsWeb\wwwroot\app\services\NewsService.js.map
C:\Projects\mme2\mme2\NewsWeb\wwwroot\app\components\news-list\news-list.component.js
C:\Projects\mme2\mme2\NewsWeb\wwwroot\app\components\news-list\news-list.component.js.map
C:\Projects\mme2\mme2\NewsWeb\wwwroot\app\components\left-side\left-side.component.js
C:\Projects\mme2\mme2\NewsWeb\wwwroot\app\components\left-side\left-side.component.js.map
C:\Projects\mme2\mme2\NewsWeb\wwwroot\app\app.module.js
C:\Projects\mme2\mme2\NewsWeb\wwwroot\app\app.module.js.map
C:\Projects\mme2\mme2\NewsWeb\wwwroot\app\main.js
C:\Projects\mme2\mme2\NewsWeb\wwwroot\app\main.js.map
C:\Projects\mme2\mme2\NewsWeb\wwwroot\app\components\news-list\news-list.component.spec.js
C:\Projects\mme2\mme2\NewsWeb\wwwroot\app\components\news-list\news-list.component.spec.js.map
C:\Projects\mme2\mme2\NewsWeb\wwwroot\app\components\left-side\left-side.component.spec.js
C:\Projects\mme2\mme2\NewsWeb\wwwroot\app\components\left-side\left-side.component.spec.js.map
C:\Projects\mme2\mme2\NewsWeb\wwwroot\app\app.component.js
C:\Projects\mme2\mme2\NewsWeb\wwwroot\app\app.component.js.map
C:\Projects\mme2\mme2\NewsWeb\wwwroot\app\app.component.spec.js
C:\Projects\mme2\mme2\NewsWeb\wwwroot\app\app.component.spec.js.map
C:\Projects\mme2\mme2\NewsWeb\wwwroot\app\models\News.js
C:\Projects\mme2\mme2\NewsWeb\wwwroot\app\models\News.js.map
C:\Projects\mme2\mme2\NewsWeb\wwwroot\app\services\HttpService\HttpService.js
C:\Projects\mme2\mme2\NewsWeb\wwwroot\app\services\HttpService\HttpService.js.map
C:\Projects\mme2\mme2\NewsWeb\wwwroot\app\services\NewsService.js
C:\Projects\mme2\mme2\NewsWeb\wwwroot\app\services\NewsService.js.map
C:\Projects\mme2\mme2\NewsWeb\wwwroot\app\components\news-list\news-list.component.js
C:\Projects\mme2\mme2\NewsWeb\wwwroot\app\components\news-list\news-list.component.js.map
C:\Projects\mme2\mme2\NewsWeb\wwwroot\app\components\left-side\left-side.component.js
C:\Projects\mme2\mme2\NewsWeb\wwwroot\app\components\left-side\left-side.component.js.map
C:\Projects\mme2\mme2\NewsWeb\wwwroot\app\app.module.js
C:\Projects\mme2\mme2\NewsWeb\wwwroot\app\app.module.js.map
C:\Projects\mme2\mme2\NewsWeb\wwwroot\app\main.js
C:\Projects\mme2\mme2\NewsWeb\wwwroot\app\main.js.map
C:\Projects\mme2\mme2\NewsWeb\wwwroot\app\components\news-list\news-list.component.spec.js
C:\Projects\mme2\mme2\NewsWeb\wwwroot\app\components\news-list\news-list.component.spec.js.map
C:\Projects\mme2\mme2\NewsWeb\wwwroot\app\components\left-side\left-side.component.spec.js
C:\Projects\mme2\mme2\NewsWeb\wwwroot\app\components\left-side\left-side.component.spec.js.map
C:\Projects\mme2\mme2\NewsWeb\wwwroot\app\app.component.js
C:\Projects\mme2\mme2\NewsWeb\wwwroot\app\app.component.js.map
C:\Projects\mme2\mme2\NewsWeb\wwwroot\app\app.component.spec.js
C:\Projects\mme2\mme2\NewsWeb\wwwroot\app\app.component.spec.js.map
C:\Projects\mme2\mme2\NewsWeb\wwwroot\app\models\News.js
C:\Projects\mme2\mme2\NewsWeb\wwwroot\app\models\News.js.map
C:\Projects\mme2\mme2\NewsWeb\wwwroot\app\services\HttpService\HttpService.js
C:\Projects\mme2\mme2\NewsWeb\wwwroot\app\services\HttpService\HttpService.js.map
C:\Projects\mme2\mme2\NewsWeb\wwwroot\app\services\NewsService.js
C:\Projects\mme2\mme2\NewsWeb\wwwroot\app\services\NewsService.js.map
C:\Projects\mme2\mme2\NewsWeb\wwwroot\app\components\news-list\news-list.component.js
C:\Projects\mme2\mme2\NewsWeb\wwwroot\app\components\news-list\news-list.component.js.map
C:\Projects\mme2\mme2\NewsWeb\wwwroot\app\components\left-side\left-side.component.js
C:\Projects\mme2\mme2\NewsWeb\wwwroot\app\components\left-side\left-side.component.js.map
C:\Projects\mme2\mme2\NewsWeb\wwwroot\app\app.module.js
C:\Projects\mme2\mme2\NewsWeb\wwwroot\app\app.module.js.map
C:\Projects\mme2\mme2\NewsWeb\wwwroot\app\main.js
C:\Projects\mme2\mme2\NewsWeb\wwwroot\app\main.js.map
C:\Projects\mme2\mme2\NewsWeb\wwwroot\app\components\news-list\news-list.component.spec.js
C:\Projects\mme2\mme2\NewsWeb\wwwroot\app\components\news-list\news-list.component.spec.js.map
C:\Projects\mme2\mme2\NewsWeb\wwwroot\app\components\left-side\left-side.component.spec.js
C:\Projects\mme2\mme2\NewsWeb\wwwroot\app\components\left-side\left-side.component.spec.js.map
C:\Projects\mme2\mme2\NewsWeb\wwwroot\app\app.component.js
C:\Projects\mme2\mme2\NewsWeb\wwwroot\app\app.component.js.map
C:\Projects\mme2\mme2\NewsWeb\wwwroot\app\app.component.spec.js
C:\Projects\mme2\mme2\NewsWeb\wwwroot\app\app.component.spec.js.map
C:\Projects\mme2\mme2\NewsWeb\wwwroot\app\models\News.js
C:\Projects\mme2\mme2\NewsWeb\wwwroot\app\models\News.js.map
C:\Projects\mme2\mme2\NewsWeb\wwwroot\app\services\HttpService\HttpService.js
C:\Projects\mme2\mme2\NewsWeb\wwwroot\app\services\HttpService\HttpService.js.map
C:\Projects\mme2\mme2\NewsWeb\wwwroot\app\services\NewsService.js
C:\Projects\mme2\mme2\NewsWeb\wwwroot\app\services\NewsService.js.map
C:\Projects\mme2\mme2\NewsWeb\wwwroot\app\components\news-list\news-list.component.js
C:\Projects\mme2\mme2\NewsWeb\wwwroot\app\components\news-list\news-list.component.js.map
C:\Projects\mme2\mme2\NewsWeb\wwwroot\app\components\left-side\left-side.component.js
C:\Projects\mme2\mme2\NewsWeb\wwwroot\app\components\left-side\left-side.component.js.map
C:\Projects\mme2\mme2\NewsWeb\wwwroot\app\app.module.js
C:\Projects\mme2\mme2\NewsWeb\wwwroot\app\app.module.js.map
C:\Projects\mme2\mme2\NewsWeb\wwwroot\app\main.js
C:\Projects\mme2\mme2\NewsWeb\wwwroot\app\main.js.map
C:\Projects\mme2\mme2\NewsWeb\wwwroot\app\components\news-list\news-list.component.spec.js
C:\Projects\mme2\mme2\NewsWeb\wwwroot\app\components\news-list\news-list.component.spec.js.map
C:\Projects\mme2\mme2\NewsWeb\wwwroot\app\components\left-side\left-side.component.spec.js
C:\Projects\mme2\mme2\NewsWeb\wwwroot\app\components\left-side\left-side.component.spec.js.map
C:\Projects\mme2\mme2\NewsWeb\wwwroot\app\app.component.js
C:\Projects\mme2\mme2\NewsWeb\wwwroot\app\app.component.js.map
C:\Projects\mme2\mme2\NewsWeb\wwwroot\app\app.component.spec.js
C:\Projects\mme2\mme2\NewsWeb\wwwroot\app\app.component.spec.js.map
C:\Projects\mme2\mme2\NewsWeb\wwwroot\app\models\News.js
C:\Projects\mme2\mme2\NewsWeb\wwwroot\app\models\News.js.map
C:\Projects\mme2\mme2\NewsWeb\wwwroot\app\services\HttpService\HttpService.js
C:\Projects\mme2\mme2\NewsWeb\wwwroot\app\services\HttpService\HttpService.js.map
C:\Projects\mme2\mme2\NewsWeb\wwwroot\app\services\NewsService.js
C:\Projects\mme2\mme2\NewsWeb\wwwroot\app\services\NewsService.js.map
C:\Projects\mme2\mme2\NewsWeb\wwwroot\app\components\news-list\news-list.component.js
C:\Projects\mme2\mme2\NewsWeb\wwwroot\app\components\news-list\news-list.component.js.map
C:\Projects\mme2\mme2\NewsWeb\wwwroot\app\components\left-side\left-side.component.js
C:\Projects\mme2\mme2\NewsWeb\wwwroot\app\components\left-side\left-side.component.js.map
C:\Projects\mme2\mme2\NewsWeb\wwwroot\app\app.module.js
C:\Projects\mme2\mme2\NewsWeb\wwwroot\app\app.module.js.map
C:\Projects\mme2\mme2\NewsWeb\wwwroot\app\main.js
C:\Projects\mme2\mme2\NewsWeb\wwwroot\app\main.js.map
C:\Projects\mme2\mme2\NewsWeb\wwwroot\app\components\news-list\news-list.component.spec.js
C:\Projects\mme2\mme2\NewsWeb\wwwroot\app\components\news-list\news-list.component.spec.js.map
C:\Projects\mme2\mme2\NewsWeb\wwwroot\app\components\left-side\left-side.component.spec.js
C:\Projects\mme2\mme2\NewsWeb\wwwroot\app\components\left-side\left-side.component.spec.js.map
C:\Projects\mme2\mme2\NewsWeb\wwwroot\app\app.component.js
C:\Projects\mme2\mme2\NewsWeb\wwwroot\app\app.component.js.map
C:\Projects\mme2\mme2\NewsWeb\wwwroot\app\app.component.spec.js
C:\Projects\mme2\mme2\NewsWeb\wwwroot\app\app.component.spec.js.map
C:\Projects\mme2\mme2\NewsWeb\wwwroot\app\models\News.js
C:\Projects\mme2\mme2\NewsWeb\wwwroot\app\models\News.js.map
C:\Projects\mme2\mme2\NewsWeb\wwwroot\app\services\HttpService\HttpService.js
C:\Projects\mme2\mme2\NewsWeb\wwwroot\app\services\HttpService\HttpService.js.map
C:\Projects\mme2\mme2\NewsWeb\wwwroot\app\services\NewsService.js
C:\Projects\mme2\mme2\NewsWeb\wwwroot\app\services\NewsService.js.map
C:\Projects\mme2\mme2\NewsWeb\wwwroot\app\components\news-list\news-list.component.js
C:\Projects\mme2\mme2\NewsWeb\wwwroot\app\components\news-list\news-list.component.js.map
C:\Projects\mme2\mme2\NewsWeb\wwwroot\app\components\left-side\left-side.component.js
C:\Projects\mme2\mme2\NewsWeb\wwwroot\app\components\left-side\left-side.component.js.map
C:\Projects\mme2\mme2\NewsWeb\wwwroot\app\app.module.js
C:\Projects\mme2\mme2\NewsWeb\wwwroot\app\app.module.js.map
C:\Projects\mme2\mme2\NewsWeb\wwwroot\app\main.js
C:\Projects\mme2\mme2\NewsWeb\wwwroot\app\main.js.map
C:\Projects\mme2\mme2\NewsWeb\wwwroot\app\components\news-list\news-list.component.spec.js
C:\Projects\mme2\mme2\NewsWeb\wwwroot\app\components\news-list\news-list.component.spec.js.map
C:\Projects\mme2\mme2\NewsWeb\wwwroot\app\components\left-side\left-side.component.spec.js
C:\Projects\mme2\mme2\NewsWeb\wwwroot\app\components\left-side\left-side.component.spec.js.map
C:\Projects\mme2\mme2\NewsWeb\wwwroot\app\app.component.js
C:\Projects\mme2\mme2\NewsWeb\wwwroot\app\app.component.js.map
C:\Projects\mme2\mme2\NewsWeb\wwwroot\app\app.component.spec.js
C:\Projects\mme2\mme2\NewsWeb\wwwroot\app\app.component.spec.js.map
C:\Projects\mme2\mme2\NewsWeb\wwwroot\app\models\News.js
C:\Projects\mme2\mme2\NewsWeb\wwwroot\app\models\News.js.map
C:\Projects\mme2\mme2\NewsWeb\wwwroot\app\services\HttpService\HttpService.js
C:\Projects\mme2\mme2\NewsWeb\wwwroot\app\services\HttpService\HttpService.js.map
C:\Projects\mme2\mme2\NewsWeb\wwwroot\app\services\NewsService.js
C:\Projects\mme2\mme2\NewsWeb\wwwroot\app\services\NewsService.js.map
C:\Projects\mme2\mme2\NewsWeb\wwwroot\app\components\news-list\news-list.component.js
C:\Projects\mme2\mme2\NewsWeb\wwwroot\app\components\news-list\news-list.component.js.map
C:\Projects\mme2\mme2\NewsWeb\wwwroot\app\components\left-side\left-side.component.js
C:\Projects\mme2\mme2\NewsWeb\wwwroot\app\components\left-side\left-side.component.js.map
C:\Projects\mme2\mme2\NewsWeb\wwwroot\app\app.module.js
C:\Projects\mme2\mme2\NewsWeb\wwwroot\app\app.module.js.map
C:\Projects\mme2\mme2\NewsWeb\wwwroot\app\main.js
C:\Projects\mme2\mme2\NewsWeb\wwwroot\app\main.js.map
C:\Projects\mme2\mme2\NewsWeb\wwwroot\app\components\news-list\news-list.component.spec.js
C:\Projects\mme2\mme2\NewsWeb\wwwroot\app\components\news-list\news-list.component.spec.js.map
C:\Projects\mme2\mme2\NewsWeb\wwwroot\app\components\left-side\left-side.component.spec.js
C:\Projects\mme2\mme2\NewsWeb\wwwroot\app\components\left-side\left-side.component.spec.js.map
C:\Projects\mme2\mme2\NewsWeb\wwwroot\app\app.component.js
C:\Projects\mme2\mme2\NewsWeb\wwwroot\app\app.component.js.map
C:\Projects\mme2\mme2\NewsWeb\wwwroot\app\app.component.spec.js
C:\Projects\mme2\mme2\NewsWeb\wwwroot\app\app.component.spec.js.map
C:\Projects\mme2\mme2\NewsWeb\wwwroot\app\models\News.js
C:\Projects\mme2\mme2\NewsWeb\wwwroot\app\models\News.js.map
C:\Projects\mme2\mme2\NewsWeb\wwwroot\app\services\HttpService\HttpService.js
C:\Projects\mme2\mme2\NewsWeb\wwwroot\app\services\HttpService\HttpService.js.map
C:\Projects\mme2\mme2\NewsWeb\wwwroot\app\services\NewsService.js
C:\Projects\mme2\mme2\NewsWeb\wwwroot\app\services\NewsService.js.map
C:\Projects\mme2\mme2\NewsWeb\wwwroot\app\components\news-list\news-list.component.js
C:\Projects\mme2\mme2\NewsWeb\wwwroot\app\components\news-list\news-list.component.js.map
C:\Projects\mme2\mme2\NewsWeb\wwwroot\app\components\left-side\left-side.component.js
C:\Projects\mme2\mme2\NewsWeb\wwwroot\app\components\left-side\left-side.component.js.map
C:\Projects\mme2\mme2\NewsWeb\wwwroot\app\app.module.js
C:\Projects\mme2\mme2\NewsWeb\wwwroot\app\app.module.js.map
C:\Projects\mme2\mme2\NewsWeb\wwwroot\app\main.js
C:\Projects\mme2\mme2\NewsWeb\wwwroot\app\main.js.map
C:\Projects\mme2\mme2\NewsWeb\wwwroot\app\components\news-list\news-list.component.spec.js
C:\Projects\mme2\mme2\NewsWeb\wwwroot\app\components\news-list\news-list.component.spec.js.map
C:\Projects\mme2\mme2\NewsWeb\wwwroot\app\components\left-side\left-side.component.spec.js
C:\Projects\mme2\mme2\NewsWeb\wwwroot\app\components\left-side\left-side.component.spec.js.map
C:\Projects\mme2\mme2\NewsWeb\wwwroot\app\app.component.js
C:\Projects\mme2\mme2\NewsWeb\wwwroot\app\app.component.js.map
C:\Projects\mme2\mme2\NewsWeb\wwwroot\app\app.component.spec.js
C:\Projects\mme2\mme2\NewsWeb\wwwroot\app\app.component.spec.js.map
C:\Projects\mme2\mme2\NewsWeb\wwwroot\app\models\News.js
C:\Projects\mme2\mme2\NewsWeb\wwwroot\app\models\News.js.map
C:\Projects\mme2\mme2\NewsWeb\wwwroot\app\services\HttpService\HttpService.js
C:\Projects\mme2\mme2\NewsWeb\wwwroot\app\services\HttpService\HttpService.js.map
C:\Projects\mme2\mme2\NewsWeb\wwwroot\app\services\NewsService.js
C:\Projects\mme2\mme2\NewsWeb\wwwroot\app\services\NewsService.js.map
C:\Projects\mme2\mme2\NewsWeb\wwwroot\app\components\news-list\news-list.component.js
C:\Projects\mme2\mme2\NewsWeb\wwwroot\app\components\news-list\news-list.component.js.map
C:\Projects\mme2\mme2\NewsWeb\wwwroot\app\components\left-side\left-side.component.js
C:\Projects\mme2\mme2\NewsWeb\wwwroot\app\components\left-side\left-side.component.js.map
C:\Projects\mme2\mme2\NewsWeb\wwwroot\app\app.module.js
C:\Projects\mme2\mme2\NewsWeb\wwwroot\app\app.module.js.map
C:\Projects\mme2\mme2\NewsWeb\wwwroot\app\main.js
C:\Projects\mme2\mme2\NewsWeb\wwwroot\app\main.js.map
C:\Projects\mme2\mme2\NewsWeb\wwwroot\app\components\news-list\news-list.component.spec.js
C:\Projects\mme2\mme2\NewsWeb\wwwroot\app\components\news-list\news-list.component.spec.js.map
C:\Projects\mme2\mme2\NewsWeb\wwwroot\app\components\left-side\left-side.component.spec.js
C:\Projects\mme2\mme2\NewsWeb\wwwroot\app\components\left-side\left-side.component.spec.js.map
C:\Projects\mme2\mme2\NewsWeb\wwwroot\app\app.component.js
C:\Projects\mme2\mme2\NewsWeb\wwwroot\app\app.component.js.map
C:\Projects\mme2\mme2\NewsWeb\wwwroot\app\app.component.spec.js
C:\Projects\mme2\mme2\NewsWeb\wwwroot\app\app.component.spec.js.map
C:\Projects\mme2\mme2\NewsWeb\wwwroot\app\models\News.js
C:\Projects\mme2\mme2\NewsWeb\wwwroot\app\models\News.js.map
C:\Projects\mme2\mme2\NewsWeb\wwwroot\app\services\HttpService\HttpService.js
C:\Projects\mme2\mme2\NewsWeb\wwwroot\app\services\HttpService\HttpService.js.map
C:\Projects\mme2\mme2\NewsWeb\wwwroot\app\services\NewsService.js
C:\Projects\mme2\mme2\NewsWeb\wwwroot\app\services\NewsService.js.map
C:\Projects\mme2\mme2\NewsWeb\wwwroot\app\components\news-list\news-list.component.js
C:\Projects\mme2\mme2\NewsWeb\wwwroot\app\components\news-list\news-list.component.js.map
C:\Projects\mme2\mme2\NewsWeb\wwwroot\app\components\left-side\left-side.component.js
C:\Projects\mme2\mme2\NewsWeb\wwwroot\app\components\left-side\left-side.component.js.map
C:\Projects\mme2\mme2\NewsWeb\wwwroot\app\app.module.js
C:\Projects\mme2\mme2\NewsWeb\wwwroot\app\app.module.js.map
C:\Projects\mme2\mme2\NewsWeb\wwwroot\app\main.js
C:\Projects\mme2\mme2\NewsWeb\wwwroot\app\main.js.map
C:\Projects\mme2\mme2\NewsWeb\wwwroot\app\components\news-list\news-list.component.spec.js
C:\Projects\mme2\mme2\NewsWeb\wwwroot\app\components\news-list\news-list.component.spec.js.map
C:\Projects\mme2\mme2\NewsWeb\wwwroot\app\components\left-side\left-side.component.spec.js
C:\Projects\mme2\mme2\NewsWeb\wwwroot\app\components\left-side\left-side.component.spec.js.map
C:\Projects\mme2\mme2\NewsWeb\wwwroot\app\app.component.js
C:\Projects\mme2\mme2\NewsWeb\wwwroot\app\app.component.js.map
C:\Projects\mme2\mme2\NewsWeb\wwwroot\app\app.component.spec.js
C:\Projects\mme2\mme2\NewsWeb\wwwroot\app\app.component.spec.js.map
C:\Projects\mme2\mme2\NewsWeb\wwwroot\app\models\News.js
C:\Projects\mme2\mme2\NewsWeb\wwwroot\app\models\News.js.map
C:\Projects\mme2\mme2\NewsWeb\wwwroot\app\services\HttpService\HttpService.js
C:\Projects\mme2\mme2\NewsWeb\wwwroot\app\services\HttpService\HttpService.js.map
C:\Projects\mme2\mme2\NewsWeb\wwwroot\app\services\NewsService.js
C:\Projects\mme2\mme2\NewsWeb\wwwroot\app\services\NewsService.js.map
C:\Projects\mme2\mme2\NewsWeb\wwwroot\app\components\news-list\news-list.component.js
C:\Projects\mme2\mme2\NewsWeb\wwwroot\app\components\news-list\news-list.component.js.map
C:\Projects\mme2\mme2\NewsWeb\wwwroot\app\components\left-side\left-side.component.js
C:\Projects\mme2\mme2\NewsWeb\wwwroot\app\components\left-side\left-side.component.js.map
C:\Projects\mme2\mme2\NewsWeb\wwwroot\app\app.module.js
C:\Projects\mme2\mme2\NewsWeb\wwwroot\app\app.module.js.map
C:\Projects\mme2\mme2\NewsWeb\wwwroot\app\main.js
C:\Projects\mme2\mme2\NewsWeb\wwwroot\app\main.js.map
C:\Projects\mme2\mme2\NewsWeb\wwwroot\app\components\news-list\news-list.component.spec.js
C:\Projects\mme2\mme2\NewsWeb\wwwroot\app\components\news-list\news-list.component.spec.js.map
C:\Projects\mme2\mme2\NewsWeb\wwwroot\app\components\left-side\left-side.component.spec.js
C:\Projects\mme2\mme2\NewsWeb\wwwroot\app\components\left-side\left-side.component.spec.js.map
C:\Projects\mme2\mme2\NewsWeb\wwwroot\app\app.component.js
C:\Projects\mme2\mme2\NewsWeb\wwwroot\app\app.component.js.map
C:\Projects\mme2\mme2\NewsWeb\wwwroot\app\app.component.spec.js
C:\Projects\mme2\mme2\NewsWeb\wwwroot\app\app.component.spec.js.map
C:\Projects\mme2\mme2\NewsWeb\wwwroot\app\models\News.js
C:\Projects\mme2\mme2\NewsWeb\wwwroot\app\models\News.js.map
C:\Projects\mme2\mme2\NewsWeb\wwwroot\app\services\HttpService\HttpService.js
C:\Projects\mme2\mme2\NewsWeb\wwwroot\app\services\HttpService\HttpService.js.map
C:\Projects\mme2\mme2\NewsWeb\wwwroot\app\services\NewsService.js
C:\Projects\mme2\mme2\NewsWeb\wwwroot\app\services\NewsService.js.map
C:\Projects\mme2\mme2\NewsWeb\wwwroot\app\components\news-list\news-list.component.js
C:\Projects\mme2\mme2\NewsWeb\wwwroot\app\components\news-list\news-list.component.js.map
C:\Projects\mme2\mme2\NewsWeb\wwwroot\app\components\left-side\left-side.component.js
C:\Projects\mme2\mme2\NewsWeb\wwwroot\app\components\left-side\left-side.component.js.map
C:\Projects\mme2\mme2\NewsWeb\wwwroot\app\app.module.js
C:\Projects\mme2\mme2\NewsWeb\wwwroot\app\app.module.js.map
C:\Projects\mme2\mme2\NewsWeb\wwwroot\app\main.js
C:\Projects\mme2\mme2\NewsWeb\wwwroot\app\main.js.map
C:\Projects\mme2\mme2\NewsWeb\wwwroot\app\components\news-list\news-list.component.spec.js
C:\Projects\mme2\mme2\NewsWeb\wwwroot\app\components\news-list\news-list.component.spec.js.map
C:\Projects\mme2\mme2\NewsWeb\wwwroot\app\components\left-side\left-side.component.spec.js
C:\Projects\mme2\mme2\NewsWeb\wwwroot\app\components\left-side\left-side.component.spec.js.map
C:\Projects\mme2\mme2\NewsWeb\wwwroot\app\app.component.js
C:\Projects\mme2\mme2\NewsWeb\wwwroot\app\app.component.js.map
C:\Projects\mme2\mme2\NewsWeb\wwwroot\app\app.component.spec.js
C:\Projects\mme2\mme2\NewsWeb\wwwroot\app\app.component.spec.js.map
C:\Projects\mme2\mme2\NewsWeb\wwwroot\app\models\News.js
C:\Projects\mme2\mme2\NewsWeb\wwwroot\app\models\News.js.map
C:\Projects\mme2\mme2\NewsWeb\wwwroot\app\services\HttpService\HttpService.js
C:\Projects\mme2\mme2\NewsWeb\wwwroot\app\services\HttpService\HttpService.js.map
C:\Projects\mme2\mme2\NewsWeb\wwwroot\app\services\NewsService.js
C:\Projects\mme2\mme2\NewsWeb\wwwroot\app\services\NewsService.js.map
C:\Projects\mme2\mme2\NewsWeb\wwwroot\app\components\news-list\news-list.component.js
C:\Projects\mme2\mme2\NewsWeb\wwwroot\app\components\news-list\news-list.component.js.map
C:\Projects\mme2\mme2\NewsWeb\wwwroot\app\components\left-side\left-side.component.js
C:\Projects\mme2\mme2\NewsWeb\wwwroot\app\components\left-side\left-side.component.js.map
C:\Projects\mme2\mme2\NewsWeb\wwwroot\app\app.module.js
C:\Projects\mme2\mme2\NewsWeb\wwwroot\app\app.module.js.map
C:\Projects\mme2\mme2\NewsWeb\wwwroot\app\main.js
C:\Projects\mme2\mme2\NewsWeb\wwwroot\app\main.js.map
C:\Projects\mme2\mme2\NewsWeb\wwwroot\app\components\news-list\news-list.component.spec.js
C:\Projects\mme2\mme2\NewsWeb\wwwroot\app\components\news-list\news-list.component.spec.js.map
C:\Projects\mme2\mme2\NewsWeb\wwwroot\app\components\left-side\left-side.component.spec.js
C:\Projects\mme2\mme2\NewsWeb\wwwroot\app\components\left-side\left-side.component.spec.js.map
C:\Projects\mme2\mme2\NewsWeb\wwwroot\app\app.component.js
C:\Projects\mme2\mme2\NewsWeb\wwwroot\app\app.component.js.map
C:\Projects\mme2\mme2\NewsWeb\wwwroot\app\app.component.spec.js
C:\Projects\mme2\mme2\NewsWeb\wwwroot\app\app.component.spec.js.map
C:\Projects\mme2\mme2\NewsWeb\wwwroot\app\models\News.js
C:\Projects\mme2\mme2\NewsWeb\wwwroot\app\models\News.js.map
C:\Projects\mme2\mme2\NewsWeb\wwwroot\app\services\HttpService\HttpService.js
C:\Projects\mme2\mme2\NewsWeb\wwwroot\app\services\HttpService\HttpService.js.map
C:\Projects\mme2\mme2\NewsWeb\wwwroot\app\services\NewsService.js
C:\Projects\mme2\mme2\NewsWeb\wwwroot\app\services\NewsService.js.map
C:\Projects\mme2\mme2\NewsWeb\wwwroot\app\components\news-list\news-list.component.js
C:\Projects\mme2\mme2\NewsWeb\wwwroot\app\components\news-list\news-list.component.js.map
C:\Projects\mme2\mme2\NewsWeb\wwwroot\app\components\left-side\left-side.component.js
C:\Projects\mme2\mme2\NewsWeb\wwwroot\app\components\left-side\left-side.component.js.map
C:\Projects\mme2\mme2\NewsWeb\wwwroot\app\app.module.js
C:\Projects\mme2\mme2\NewsWeb\wwwroot\app\app.module.js.map
C:\Projects\mme2\mme2\NewsWeb\wwwroot\app\main.js
C:\Projects\mme2\mme2\NewsWeb\wwwroot\app\main.js.map
C:\Projects\mme2\mme2\NewsWeb\wwwroot\app\components\news-list\news-list.component.spec.js
C:\Projects\mme2\mme2\NewsWeb\wwwroot\app\components\news-list\news-list.component.spec.js.map
C:\Projects\mme2\mme2\NewsWeb\wwwroot\app\components\left-side\left-side.component.spec.js
C:\Projects\mme2\mme2\NewsWeb\wwwroot\app\components\left-side\left-side.component.spec.js.map
C:\Projects\mme2\mme2\NewsWeb\wwwroot\app\app.component.js
C:\Projects\mme2\mme2\NewsWeb\wwwroot\app\app.component.js.map
C:\Projects\mme2\mme2\NewsWeb\wwwroot\app\app.component.spec.js
C:\Projects\mme2\mme2\NewsWeb\wwwroot\app\app.component.spec.js.map
C:\Projects\mme2\mme2\NewsWeb\wwwroot\app\models\News.js
C:\Projects\mme2\mme2\NewsWeb\wwwroot\app\models\News.js.map
C:\Projects\mme2\mme2\NewsWeb\wwwroot\app\services\HttpService\HttpService.js
C:\Projects\mme2\mme2\NewsWeb\wwwroot\app\services\HttpService\HttpService.js.map
C:\Projects\mme2\mme2\NewsWeb\wwwroot\app\services\NewsService.js
C:\Projects\mme2\mme2\NewsWeb\wwwroot\app\services\NewsService.js.map
C:\Projects\mme2\mme2\NewsWeb\wwwroot\app\components\news-list\news-list.component.js
C:\Projects\mme2\mme2\NewsWeb\wwwroot\app\components\news-list\news-list.component.js.map
C:\Projects\mme2\mme2\NewsWeb\wwwroot\app\components\left-side\left-side.component.js
C:\Projects\mme2\mme2\NewsWeb\wwwroot\app\components\left-side\left-side.component.js.map
C:\Projects\mme2\mme2\NewsWeb\wwwroot\app\app.module.js
C:\Projects\mme2\mme2\NewsWeb\wwwroot\app\app.module.js.map
C:\Projects\mme2\mme2\NewsWeb\wwwroot\app\main.js
C:\Projects\mme2\mme2\NewsWeb\wwwroot\app\main.js.map
C:\Projects\mme2\mme2\NewsWeb\wwwroot\app\components\news-list\news-list.component.spec.js
C:\Projects\mme2\mme2\NewsWeb\wwwroot\app\components\news-list\news-list.component.spec.js.map
C:\Projects\mme2\mme2\NewsWeb\wwwroot\app\components\left-side\left-side.component.spec.js
C:\Projects\mme2\mme2\NewsWeb\wwwroot\app\components\left-side\left-side.component.spec.js.map
C:\Projects\mme2\mme2\NewsWeb\wwwroot\app\app.component.js
C:\Projects\mme2\mme2\NewsWeb\wwwroot\app\app.component.js.map
C:\Projects\mme2\mme2\NewsWeb\wwwroot\app\app.component.spec.js
C:\Projects\mme2\mme2\NewsWeb\wwwroot\app\app.component.spec.js.map
C:\Projects\mme2\mme2\NewsWeb\wwwroot\app\models\News.js
C:\Projects\mme2\mme2\NewsWeb\wwwroot\app\models\News.js.map
C:\Projects\mme2\mme2\NewsWeb\wwwroot\app\services\HttpService\HttpService.js
C:\Projects\mme2\mme2\NewsWeb\wwwroot\app\services\HttpService\HttpService.js.map
C:\Projects\mme2\mme2\NewsWeb\wwwroot\app\services\NewsService.js
C:\Projects\mme2\mme2\NewsWeb\wwwroot\app\services\NewsService.js.map
C:\Projects\mme2\mme2\NewsWeb\wwwroot\app\components\news-list\news-list.component.js
C:\Projects\mme2\mme2\NewsWeb\wwwroot\app\components\news-list\news-list.component.js.map
C:\Projects\mme2\mme2\NewsWeb\wwwroot\app\components\left-side\left-side.component.js
C:\Projects\mme2\mme2\NewsWeb\wwwroot\app\components\left-side\left-side.component.js.map
C:\Projects\mme2\mme2\NewsWeb\wwwroot\app\app.module.js
C:\Projects\mme2\mme2\NewsWeb\wwwroot\app\app.module.js.map
C:\Projects\mme2\mme2\NewsWeb\wwwroot\app\main.js
C:\Projects\mme2\mme2\NewsWeb\wwwroot\app\main.js.map
C:\Projects\mme2\mme2\NewsWeb\wwwroot\app\components\news-list\news-list.component.spec.js
C:\Projects\mme2\mme2\NewsWeb\wwwroot\app\components\news-list\news-list.component.spec.js.map
C:\Projects\mme2\mme2\NewsWeb\wwwroot\app\components\left-side\left-side.component.spec.js
C:\Projects\mme2\mme2\NewsWeb\wwwroot\app\components\left-side\left-side.component.spec.js.map
C:\Projects\mme2\mme2\NewsWeb\wwwroot\app\app.component.js
C:\Projects\mme2\mme2\NewsWeb\wwwroot\app\app.component.js.map
C:\Projects\mme2\mme2\NewsWeb\wwwroot\app\app.component.spec.js
C:\Projects\mme2\mme2\NewsWeb\wwwroot\app\app.component.spec.js.map
C:\Projects\mme2\mme2\NewsWeb\wwwroot\app\models\News.js
C:\Projects\mme2\mme2\NewsWeb\wwwroot\app\models\News.js.map
C:\Projects\mme2\mme2\NewsWeb\wwwroot\app\services\HttpService\HttpService.js
C:\Projects\mme2\mme2\NewsWeb\wwwroot\app\services\HttpService\HttpService.js.map
C:\Projects\mme2\mme2\NewsWeb\wwwroot\app\services\NewsService.js
C:\Projects\mme2\mme2\NewsWeb\wwwroot\app\services\NewsService.js.map
C:\Projects\mme2\mme2\NewsWeb\wwwroot\app\components\news-list\news-list.component.js
C:\Projects\mme2\mme2\NewsWeb\wwwroot\app\components\news-list\news-list.component.js.map
C:\Projects\mme2\mme2\NewsWeb\wwwroot\app\components\left-side\left-side.component.js
C:\Projects\mme2\mme2\NewsWeb\wwwroot\app\components\left-side\left-side.component.js.map
C:\Projects\mme2\mme2\NewsWeb\wwwroot\app\app.module.js
C:\Projects\mme2\mme2\NewsWeb\wwwroot\app\app.module.js.map
C:\Projects\mme2\mme2\NewsWeb\wwwroot\app\main.js
C:\Projects\mme2\mme2\NewsWeb\wwwroot\app\main.js.map
C:\Projects\mme2\mme2\NewsWeb\wwwroot\app\components\news-list\news-list.component.spec.js
C:\Projects\mme2\mme2\NewsWeb\wwwroot\app\components\news-list\news-list.component.spec.js.map
C:\Projects\mme2\mme2\NewsWeb\wwwroot\app\components\left-side\left-side.component.spec.js
C:\Projects\mme2\mme2\NewsWeb\wwwroot\app\components\left-side\left-side.component.spec.js.map
C:\Projects\mme2\mme2\NewsWeb\wwwroot\app\app.component.js
C:\Projects\mme2\mme2\NewsWeb\wwwroot\app\app.component.js.map
C:\Projects\mme2\mme2\NewsWeb\wwwroot\app\app.component.spec.js
C:\Projects\mme2\mme2\NewsWeb\wwwroot\app\app.component.spec.js.map
C:\Projects\mme2\mme2\NewsWeb\wwwroot\app\models\News.js
C:\Projects\mme2\mme2\NewsWeb\wwwroot\app\models\News.js.map
C:\Projects\mme2\mme2\NewsWeb\wwwroot\app\services\HttpService\HttpService.js
C:\Projects\mme2\mme2\NewsWeb\wwwroot\app\services\HttpService\HttpService.js.map
C:\Projects\mme2\mme2\NewsWeb\wwwroot\app\services\NewsService.js
C:\Projects\mme2\mme2\NewsWeb\wwwroot\app\services\NewsService.js.map
C:\Projects\mme2\mme2\NewsWeb\wwwroot\app\components\news-list\news-list.component.js
C:\Projects\mme2\mme2\NewsWeb\wwwroot\app\components\news-list\news-list.component.js.map
C:\Projects\mme2\mme2\NewsWeb\wwwroot\app\components\left-side\left-side.component.js
C:\Projects\mme2\mme2\NewsWeb\wwwroot\app\components\left-side\left-side.component.js.map
C:\Projects\mme2\mme2\NewsWeb\wwwroot\app\app.module.js
C:\Projects\mme2\mme2\NewsWeb\wwwroot\app\app.module.js.map
C:\Projects\mme2\mme2\NewsWeb\wwwroot\app\main.js
C:\Projects\mme2\mme2\NewsWeb\wwwroot\app\main.js.map
C:\Projects\mme2\mme2\NewsWeb\wwwroot\app\components\news-list\news-list.component.spec.js
C:\Projects\mme2\mme2\NewsWeb\wwwroot\app\components\news-list\news-list.component.spec.js.map
C:\Projects\mme2\mme2\NewsWeb\wwwroot\app\components\left-side\left-side.component.spec.js
C:\Projects\mme2\mme2\NewsWeb\wwwroot\app\components\left-side\left-side.component.spec.js.map
C:\Projects\mme2\mme2\NewsWeb\wwwroot\app\app.component.js
C:\Projects\mme2\mme2\NewsWeb\wwwroot\app\app.component.js.map
C:\Projects\mme2\mme2\NewsWeb\wwwroot\app\app.component.spec.js
C:\Projects\mme2\mme2\NewsWeb\wwwroot\app\app.component.spec.js.map
C:\Projects\mme2\mme2\NewsWeb\wwwroot\app\models\News.js
C:\Projects\mme2\mme2\NewsWeb\wwwroot\app\models\News.js.map
C:\Projects\mme2\mme2\NewsWeb\wwwroot\app\services\HttpService\HttpService.js
C:\Projects\mme2\mme2\NewsWeb\wwwroot\app\services\HttpService\HttpService.js.map
C:\Projects\mme2\mme2\NewsWeb\wwwroot\app\services\NewsService.js
C:\Projects\mme2\mme2\NewsWeb\wwwroot\app\services\NewsService.js.map
C:\Projects\mme2\mme2\NewsWeb\wwwroot\app\components\news-list\news-list.component.js
C:\Projects\mme2\mme2\NewsWeb\wwwroot\app\components\news-list\news-list.component.js.map
C:\Projects\mme2\mme2\NewsWeb\wwwroot\app\components\left-side\left-side.component.js
C:\Projects\mme2\mme2\NewsWeb\wwwroot\app\components\left-side\left-side.component.js.map
C:\Projects\mme2\mme2\NewsWeb\wwwroot\app\app.module.js
C:\Projects\mme2\mme2\NewsWeb\wwwroot\app\app.module.js.map
C:\Projects\mme2\mme2\NewsWeb\wwwroot\app\main.js
C:\Projects\mme2\mme2\NewsWeb\wwwroot\app\main.js.map
C:\Projects\mme2\mme2\NewsWeb\wwwroot\app\components\news-list\news-list.component.spec.js
C:\Projects\mme2\mme2\NewsWeb\wwwroot\app\components\news-list\news-list.component.spec.js.map
C:\Projects\mme2\mme2\NewsWeb\wwwroot\app\components\left-side\left-side.component.spec.js
C:\Projects\mme2\mme2\NewsWeb\wwwroot\app\components\left-side\left-side.component.spec.js.map
